Time SurfaceVolume 
0.000000e+00 1.042528e+01 
2.003387e-01 1.042528e+01 
3.000568e-01 1.042528e+01 
4.002884e-01 1.042528e+01 
5.001844e-01 1.042528e+01 
6.002134e-01 1.042528e+01 
7.000079e-01 1.042528e+01 
8.003261e-01 1.042528e+01 
9.000085e-01 1.042528e+01 
1.000066e+00 1.042528e+01 
1.100005e+00 1.042528e+01 
1.200154e+00 1.042528e+01 
1.300183e+00 1.042528e+01 
1.400270e+00 1.042528e+01 
1.500136e+00 1.042528e+01 
1.600349e+00 1.042528e+01 
1.700139e+00 1.042528e+01 
1.800283e+00 1.042528e+01 
1.900080e+00 1.042528e+01 
2.000032e+00 1.042528e+01 
2.100320e+00 1.042528e+01 
2.200225e+00 1.042528e+01 
2.300135e+00 1.042528e+01 
2.400374e+00 1.042528e+01 
2.500147e+00 1.042528e+01 
2.600331e+00 1.042528e+01 
2.700244e+00 1.042528e+01 
2.800169e+00 1.042528e+01 
2.900261e+00 1.042528e+01 
3.000118e+00 1.042528e+01 
3.100348e+00 1.042528e+01 
3.200152e+00 1.042528e+01 
3.300004e+00 1.042528e+01 
3.400232e+00 1.042528e+01 
3.500073e+00 1.042528e+01 
3.600233e+00 1.042528e+01 
3.700258e+00 1.042528e+01 
3.800221e+00 1.042528e+01 
3.900318e+00 1.042528e+01 
4.000106e+00 1.042528e+01 
4.100079e+00 1.042528e+01 
4.200305e+00 1.042528e+01 
4.300018e+00 1.042528e+01 
4.400256e+00 1.042528e+01 
4.500326e+00 1.042528e+01 
4.600328e+00 1.042528e+01 
4.700198e+00 1.042528e+01 
4.800277e+00 1.042528e+01 
4.900067e+00 1.042528e+01 
5.000000e+00 1.042528e+01 
5.100123e+00 1.042528e+01 
5.200126e+00 1.042528e+01 
5.300226e+00 1.042528e+01 
5.400289e+00 1.042528e+01 
5.500191e+00 1.042528e+01 
5.600328e+00 1.042528e+01 
5.700310e+00 1.042528e+01 
5.800164e+00 1.042528e+01 
5.900383e+00 1.042528e+01 
6.000306e+00 1.042528e+01 
6.100364e+00 1.042528e+01 
6.200181e+00 1.042528e+01 
6.300141e+00 1.042528e+01 
6.400239e+00 1.042528e+01 
6.500084e+00 1.042528e+01 
6.600066e+00 1.042528e+01 
6.700177e+00 1.042528e+01 
6.800004e+00 1.042528e+01 
6.900300e+00 1.042528e+01 
7.000294e+00 1.042528e+01 
7.100008e+00 1.042528e+01 
7.200214e+00 1.042528e+01 
7.300172e+00 1.042528e+01 
7.400354e+00 1.042528e+01 
7.500095e+00 1.042528e+01 
7.600313e+00 1.042528e+01 
7.700224e+00 1.042528e+01 
7.800041e+00 1.042528e+01 
7.900254e+00 1.042528e+01 
8.000198e+00 1.042528e+01 
8.100371e+00 1.042528e+01 
8.200026e+00 1.042528e+01 
8.300406e+00 1.042528e+01 
8.400248e+00 1.042528e+01 
8.500323e+00 1.042528e+01 
8.600181e+00 1.042528e+01 
8.700250e+00 1.042528e+01 
8.800125e+00 1.042528e+01 
8.900232e+00 1.042528e+01 
9.000135e+00 1.042528e+01 
9.100250e+00 1.042528e+01 
9.200370e+00 1.042528e+01 
9.300226e+00 1.042528e+01 
9.400153e+00 1.042528e+01 
9.500339e+00 1.042528e+01 
9.600136e+00 1.042528e+01 
9.700121e+00 1.042528e+01 
9.800043e+00 1.042528e+01 
9.900181e+00 1.042528e+01 
1.000000e+01 1.042528e+01 
1.010038e+01 1.042528e+01 
1.020041e+01 1.042528e+01 
1.030007e+01 1.042528e+01 
1.040029e+01 1.042528e+01 
1.050021e+01 1.042528e+01 
1.060029e+01 1.042528e+01 
1.070008e+01 1.042528e+01 
1.080031e+01 1.042528e+01 
1.090039e+01 1.042528e+01 
1.100037e+01 1.042528e+01 
1.110024e+01 1.042528e+01 
1.120039e+01 1.042528e+01 
1.130015e+01 1.042528e+01 
1.140027e+01 1.042528e+01 
1.150021e+01 1.042528e+01 
1.160014e+01 1.042528e+01 
1.170008e+01 1.042528e+01 
1.180016e+01 1.042528e+01 
1.190008e+01 1.042528e+01 
1.200037e+01 1.042528e+01 
1.210011e+01 1.042528e+01 
1.220014e+01 1.042528e+01 
1.230044e+01 1.042528e+01 
1.240007e+01 1.042528e+01 
1.250032e+01 1.042528e+01 
1.260016e+01 1.042528e+01 
1.270011e+01 1.042528e+01 
1.280011e+01 1.042528e+01 
1.290009e+01 1.042528e+01 
1.300043e+01 1.042528e+01 
1.310005e+01 1.042528e+01 
1.320036e+01 1.042528e+01 
1.330010e+01 1.042528e+01 
1.340024e+01 1.042528e+01 
1.350019e+01 1.042528e+01 
1.360006e+01 1.042528e+01 
1.370036e+01 1.042528e+01 
1.380019e+01 1.042528e+01 
1.390020e+01 1.042528e+01 
1.400011e+01 1.042528e+01 
1.410029e+01 1.042528e+01 
1.420000e+01 1.042528e+01 
1.430033e+01 1.042528e+01 
1.440014e+01 1.042528e+01 
1.450032e+01 1.042528e+01 
1.460000e+01 1.042528e+01 
1.470028e+01 1.042528e+01 
1.480036e+01 1.042528e+01 
1.490026e+01 1.042528e+01 
1.500000e+01 1.042528e+01 
