Time SurfaceVolume BoundaryInflow BoundaryInflowAccum BoundaryOutflow BoundaryOutflowAccum 
0.000000e+00 3.000000e+01 0.000000e+00 0.000000e+00 0.000000e+00 0.000000e+00 
2.000000e+00 3.354848e+01 2.000000e+00 3.975326e+00 0.000000e+00 0.000000e+00 
3.000000e+00 3.554848e+01 2.000000e+00 5.976441e+00 0.000000e+00 0.000000e+00 
4.000000e+00 3.754848e+01 2.000000e+00 7.974842e+00 0.000000e+00 0.000000e+00 
5.000000e+00 3.954848e+01 2.000000e+00 9.974112e+00 3.787033e-09 6.970375e-10 
6.000000e+00 4.154847e+01 2.000000e+00 1.197384e+01 3.625249e-06 8.607312e-07 
7.000000e+00 4.354817e+01 2.000000e+00 1.397373e+01 4.610188e-04 1.343267e-04 
8.000000e+00 4.553297e+01 2.000000e+00 1.597369e+01 2.221463e-02 7.440335e-03 
9.000000e+00 4.716561e+01 2.000000e+00 1.797366e+01 5.581216e-01 2.219273e-01 
1.000000e+01 4.738245e+01 2.000000e+00 1.996089e+01 2.123243e+00 1.722325e+00 
1.100000e+01 4.700897e+01 2.000000e+00 2.199344e+01 2.395655e+00 4.085755e+00 
1.200000e+01 4.656697e+01 2.000000e+00 2.394490e+01 2.425580e+00 6.443126e+00 
1.300000e+01 4.611554e+01 2.000000e+00 2.593768e+01 2.433655e+00 8.865084e+00 
1.400000e+01 4.566239e+01 2.000000e+00 2.793546e+01 2.436841e+00 1.129800e+01 
1.500000e+01 4.520918e+01 2.000000e+00 2.993450e+01 2.438422e+00 1.373461e+01 
1.600000e+01 4.475627e+01 2.000000e+00 3.193398e+01 2.439364e+00 1.617296e+01 
1.700000e+01 4.430371e+01 2.000000e+00 3.393365e+01 2.440004e+00 1.861230e+01 
1.800000e+01 4.385146e+01 2.000000e+00 3.593342e+01 2.440477e+00 2.105229e+01 
1.900000e+01 4.339947e+01 2.000000e+00 3.793325e+01 2.440844e+00 2.349277e+01 
2.000000e+01 4.294770e+01 2.000000e+00 3.993311e+01 2.441136e+00 2.593361e+01 
2.100000e+01 4.249610e+01 2.000000e+00 4.193300e+01 2.441373e+00 2.837474e+01 
2.200000e+01 4.204467e+01 2.000000e+00 4.393291e+01 2.441568e+00 3.081612e+01 
2.300000e+01 4.159336e+01 2.000000e+00 4.593284e+01 2.441727e+00 3.325769e+01 
2.400000e+01 4.114217e+01 2.000000e+00 4.793278e+01 2.441843e+00 3.569941e+01 
2.500000e+01 4.069116e+01 2.000000e+00 4.993275e+01 2.441853e+00 3.814123e+01 
2.600000e+01 4.024053e+01 2.000000e+00 5.193279e+01 2.441556e+00 4.058302e+01 
2.700000e+01 3.979088e+01 2.000000e+00 5.393304e+01 2.440500e+00 4.302438e+01 
2.800000e+01 3.934353e+01 2.000000e+00 5.593374e+01 2.437938e+00 4.546447e+01 
2.900000e+01 3.890068e+01 2.000000e+00 5.793523e+01 2.432983e+00 4.790172e+01 
3.000000e+01 3.846540e+01 2.000000e+00 5.993787e+01 2.424923e+00 5.033373e+01 
3.100000e+01 3.804115e+01 2.000000e+00 6.194189e+01 2.413502e+00 5.275747e+01 
3.200000e+01 3.763126e+01 2.000000e+00 6.394730e+01 2.398994e+00 5.516969e+01 
3.300000e+01 3.723845e+01 2.000000e+00 6.595392e+01 2.382064e+00 5.756740e+01 
3.400000e+01 3.686457e+01 2.000000e+00 6.796146e+01 2.363539e+00 5.994824e+01 
3.500000e+01 3.651063e+01 2.000000e+00 6.996958e+01 2.344222e+00 6.231067e+01 
3.600000e+01 3.617685e+01 2.000000e+00 7.197797e+01 2.324778e+00 6.465390e+01 
3.700000e+01 3.586293e+01 2.000000e+00 7.398638e+01 2.305701e+00 6.697779e+01 
3.800000e+01 3.556814e+01 2.000000e+00 7.599463e+01 2.287325e+00 6.928269e+01 
3.900000e+01 3.529155e+01 2.000000e+00 7.777970e+01 2.271747e+00 7.131634e+01 
4.000000e+01 3.503207e+01 2.000000e+00 7.978647e+01 2.255182e+00 7.358646e+01 
4.100000e+01 3.478858e+01 2.000000e+00 8.179288e+01 2.239666e+00 7.584013e+01 
4.200000e+01 3.455997e+01 2.000000e+00 8.379891e+01 2.225199e+00 7.807841e+01 
4.300000e+01 3.434514e+01 2.000000e+00 8.580457e+01 2.211747e+00 8.030233e+01 
4.400000e+01 3.414303e+01 2.000000e+00 8.780986e+01 2.199262e+00 8.251289e+01 
4.500000e+01 3.395267e+01 2.000000e+00 8.981479e+01 2.187684e+00 8.471105e+01 
4.600000e+01 3.377322e+01 2.000000e+00 9.181939e+01 2.176952e+00 8.689772e+01 
4.700000e+01 3.360389e+01 2.000000e+00 9.382367e+01 2.167002e+00 8.907373e+01 
4.800000e+01 3.344394e+01 2.000000e+00 9.582767e+01 2.157774e+00 9.123987e+01 
4.900000e+01 3.329269e+01 2.000000e+00 9.783139e+01 2.149209e+00 9.339683e+01 
5.000000e+01 3.314954e+01 2.000000e+00 9.983436e+01 2.141254e+00 9.554476e+01 
5.100000e+01 3.301391e+01 2.000000e+00 1.018368e+02 2.133858e+00 9.768451e+01 
5.200000e+01 3.288528e+01 2.000000e+00 1.038392e+02 2.126973e+00 9.981703e+01 
5.300000e+01 3.276317e+01 2.000000e+00 1.058415e+02 2.120556e+00 1.019428e+02 
5.400000e+01 3.264715e+01 2.000000e+00 1.078437e+02 2.114570e+00 1.040623e+02 
5.500000e+01 3.253681e+01 2.000000e+00 1.098458e+02 2.108978e+00 1.061760e+02 
5.600000e+01 3.243178e+01 2.000000e+00 1.118479e+02 2.103749e+00 1.082842e+02 
5.700000e+01 3.233172e+01 2.000000e+00 1.138499e+02 2.098853e+00 1.103873e+02 
5.800000e+01 3.223633e+01 2.000000e+00 1.158518e+02 2.094264e+00 1.124856e+02 
5.900000e+01 3.214531e+01 2.000000e+00 1.178536e+02 2.089958e+00 1.145794e+02 
6.000000e+01 3.205840e+01 2.000000e+00 1.198554e+02 2.085913e+00 1.166689e+02 
6.100000e+01 3.197534e+01 2.000000e+00 1.218568e+02 2.082109e+00 1.187542e+02 
6.200000e+01 3.189592e+01 2.000000e+00 1.238581e+02 2.078528e+00 1.208356e+02 
6.300000e+01 3.181993e+01 2.000000e+00 1.258593e+02 2.075153e+00 1.229135e+02 
6.400000e+01 3.174716e+01 2.000000e+00 1.278605e+02 2.071969e+00 1.249881e+02 
6.500000e+01 3.167745e+01 2.000000e+00 1.298617e+02 2.068961e+00 1.270596e+02 
6.600000e+01 3.161062e+01 2.000000e+00 1.318628e+02 2.066119e+00 1.291282e+02 
6.700000e+01 3.154651e+01 2.000000e+00 1.338640e+02 2.063429e+00 1.311940e+02 
6.800000e+01 3.148499e+01 2.000000e+00 1.358651e+02 2.060881e+00 1.332571e+02 
6.900000e+01 3.142592e+01 2.000000e+00 1.378662e+02 2.058467e+00 1.353177e+02 
7.000000e+01 3.136916e+01 2.000000e+00 1.398669e+02 2.056176e+00 1.373757e+02 
7.100000e+01 3.131461e+01 2.000000e+00 1.418677e+02 2.054001e+00 1.394315e+02 
7.200000e+01 3.126215e+01 2.000000e+00 1.438685e+02 2.051934e+00 1.414851e+02 
7.300000e+01 3.121168e+01 2.000000e+00 1.458693e+02 2.049968e+00 1.435368e+02 
7.400000e+01 3.116311e+01 2.000000e+00 1.478701e+02 2.048097e+00 1.455865e+02 
7.500000e+01 3.111634e+01 2.000000e+00 1.498709e+02 2.046314e+00 1.476344e+02 
7.600000e+01 3.107130e+01 2.000000e+00 1.518717e+02 2.044615e+00 1.496806e+02 
7.700000e+01 3.102789e+01 2.000000e+00 1.538723e+02 2.042994e+00 1.517249e+02 
7.800000e+01 3.098605e+01 2.000000e+00 1.558729e+02 2.041447e+00 1.537676e+02 
7.900000e+01 3.094570e+01 2.000000e+00 1.578734e+02 2.039969e+00 1.558088e+02 
8.000000e+01 3.090678e+01 2.000000e+00 1.598740e+02 2.038556e+00 1.578485e+02 
8.100000e+01 3.092018e+01 2.123015e+00 1.619322e+02 2.037205e+00 1.598869e+02 
8.200000e+01 3.108405e+01 2.271732e+00 1.641135e+02 2.035927e+00 1.619003e+02 
8.300000e+01 3.139950e+01 2.418300e+00 1.664061e+02 2.034719e+00 1.638827e+02 
8.400000e+01 3.186634e+01 2.581451e+00 1.691263e+02 2.033433e+00 1.660887e+02 
8.500000e+01 3.248631e+01 2.728113e+00 1.717230e+02 2.032474e+00 1.680709e+02 
8.600000e+01 3.325362e+01 2.875002e+00 1.744672e+02 2.037972e+00 1.700577e+02 
8.700000e+01 3.413811e+01 3.021976e+00 1.773565e+02 2.082688e+00 1.720686e+02 
8.800000e+01 3.507501e+01 3.183642e+00 1.807002e+02 2.207382e+00 1.743745e+02 
8.900000e+01 3.601486e+01 3.330309e+00 1.838842e+02 2.358965e+00 1.766075e+02 
9.000000e+01 3.693756e+01 3.477171e+00 1.872162e+02 2.515995e+00 1.789959e+02 
9.100000e+01 3.784049e+01 3.624179e+00 1.906953e+02 2.669098e+00 1.815385e+02 
9.200000e+01 3.872145e+01 3.784665e+00 1.946577e+02 2.831603e+00 1.844825e+02 
9.300000e+01 3.957828e+01 3.931616e+00 1.984364e+02 2.978953e+00 1.873294e+02 
9.400000e+01 4.040476e+01 4.078726e+00 2.023634e+02 3.126449e+00 1.903238e+02 
9.500000e+01 4.119583e+01 4.225959e+00 2.064380e+02 3.274146e+00 1.934654e+02 
9.600000e+01 4.194574e+01 4.385522e+00 2.110168e+02 3.435209e+00 1.970341e+02 
9.700000e+01 4.264902e+01 4.532711e+00 2.153910e+02 3.585222e+00 2.004786e+02 
9.800000e+01 4.329855e+01 4.680034e+00 2.199138e+02 3.736129e+00 2.040740e+02 
9.900000e+01 4.388884e+01 4.827461e+00 2.245846e+02 3.887939e+00 2.078205e+02 
1.000000e+02 4.441374e+01 4.986250e+00 2.297773e+02 4.052991e+00 2.120234e+02 
1.010000e+02 4.480805e+01 5.000000e+00 2.347184e+02 4.209077e+00 2.161115e+02 
1.020000e+02 4.497416e+01 5.000000e+00 2.397183e+02 4.368012e+00 2.204057e+02 
1.030000e+02 4.490576e+01 5.000000e+00 2.447133e+02 4.528134e+00 2.248551e+02 
1.040000e+02 4.459832e+01 5.000000e+00 2.496275e+02 4.682711e+00 2.293883e+02 
1.050000e+02 4.409880e+01 5.000000e+00 2.545354e+02 4.777868e+00 2.340428e+02 
1.060000e+02 4.353255e+01 5.000000e+00 2.598563e+02 4.797080e+00 2.391422e+02 
1.070000e+02 4.295938e+01 5.000000e+00 2.648520e+02 4.797408e+00 2.439356e+02 
1.080000e+02 4.238635e+01 5.000000e+00 2.698522e+02 4.796995e+00 2.487329e+02 
1.090000e+02 4.181326e+01 5.000000e+00 2.748524e+02 4.796797e+00 2.535300e+02 
1.100000e+02 4.123971e+01 5.000000e+00 2.798525e+02 4.796772e+00 2.583269e+02 
1.110000e+02 4.066542e+01 5.000000e+00 2.848525e+02 4.796869e+00 2.631237e+02 
1.120000e+02 4.009019e+01 5.000000e+00 2.898524e+02 4.797046e+00 2.679205e+02 
1.130000e+02 3.951388e+01 5.000000e+00 2.948522e+02 4.797275e+00 2.727176e+02 
1.140000e+02 3.893642e+01 5.000000e+00 2.998521e+02 4.797535e+00 2.775148e+02 
1.150000e+02 3.835776e+01 5.000000e+00 3.048519e+02 4.797813e+00 2.823123e+02 
1.160000e+02 3.777790e+01 5.000000e+00 3.098517e+02 4.798098e+00 2.871101e+02 
1.170000e+02 3.719689e+01 5.000000e+00 3.148515e+02 4.798380e+00 2.919081e+02 
1.180000e+02 3.661520e+01 5.000000e+00 3.198513e+02 4.798615e+00 2.967065e+02 
1.190000e+02 3.603620e+01 5.000000e+00 3.248512e+02 4.798520e+00 3.015050e+02 
1.200000e+02 3.548105e+01 5.000000e+00 3.298518e+02 4.796260e+00 3.063032e+02 
1.210000e+02 3.503435e+01 5.000000e+00 3.348560e+02 4.783753e+00 3.110983e+02 
1.220000e+02 3.479830e+01 5.000000e+00 3.395120e+02 4.758656e+00 3.155407e+02 
1.230000e+02 3.472037e+01 5.000000e+00 3.445288e+02 4.739012e+00 3.203035e+02 
1.240000e+02 3.470062e+01 5.000000e+00 3.495372e+02 4.732379e+00 3.250461e+02 
1.250000e+02 3.469605e+01 5.000000e+00 3.545396e+02 4.730720e+00 3.297797e+02 
1.260000e+02 3.469502e+01 5.000000e+00 3.595402e+02 4.730339e+00 3.345108e+02 
1.270000e+02 3.469479e+01 5.000000e+00 3.645403e+02 4.730252e+00 3.392412e+02 
1.280000e+02 3.469474e+01 5.000000e+00 3.695404e+02 4.730233e+00 3.439714e+02 
1.290000e+02 3.469472e+01 5.000000e+00 3.745404e+02 4.730229e+00 3.487017e+02 
1.300000e+02 3.469472e+01 5.000000e+00 3.795404e+02 4.730228e+00 3.534319e+02 
1.310000e+02 3.469472e+01 5.000000e+00 3.845404e+02 4.730228e+00 3.581621e+02 
1.320000e+02 3.469472e+01 5.000000e+00 3.895404e+02 4.730228e+00 3.628923e+02 
1.330000e+02 3.469472e+01 5.000000e+00 3.945404e+02 4.730228e+00 3.676226e+02 
1.340000e+02 3.469472e+01 5.000000e+00 3.995404e+02 4.730228e+00 3.723528e+02 
1.350000e+02 3.469472e+01 5.000000e+00 4.045404e+02 4.730228e+00 3.770830e+02 
1.360000e+02 3.469472e+01 5.000000e+00 4.095404e+02 4.730228e+00 3.818133e+02 
1.370000e+02 3.469472e+01 5.000000e+00 4.145404e+02 4.730228e+00 3.865435e+02 
1.380000e+02 3.469472e+01 5.000000e+00 4.195404e+02 4.730228e+00 3.912737e+02 
1.390000e+02 3.469472e+01 5.000000e+00 4.245404e+02 4.730228e+00 3.960039e+02 
1.400000e+02 3.469472e+01 5.000000e+00 4.295404e+02 4.730228e+00 4.007342e+02 
1.410000e+02 3.469472e+01 5.000000e+00 4.345404e+02 4.730228e+00 4.054644e+02 
1.420000e+02 3.469472e+01 5.000000e+00 4.395404e+02 4.730228e+00 4.101946e+02 
1.430000e+02 3.469472e+01 5.000000e+00 4.445404e+02 4.730228e+00 4.149249e+02 
1.440000e+02 3.469472e+01 5.000000e+00 4.495404e+02 4.730228e+00 4.196551e+02 
1.450000e+02 3.469472e+01 5.000000e+00 4.545404e+02 4.730228e+00 4.243853e+02 
1.460000e+02 3.469472e+01 5.000000e+00 4.595404e+02 4.730228e+00 4.291155e+02 
1.470000e+02 3.469472e+01 5.000000e+00 4.645404e+02 4.730228e+00 4.338458e+02 
1.480000e+02 3.469472e+01 5.000000e+00 4.695404e+02 4.730228e+00 4.385760e+02 
1.490000e+02 3.469472e+01 5.000000e+00 4.745404e+02 4.730228e+00 4.433062e+02 
1.500000e+02 3.469472e+01 5.000000e+00 4.795404e+02 4.730228e+00 4.480364e+02 
1.510000e+02 3.469472e+01 5.000000e+00 4.845404e+02 4.730228e+00 4.527667e+02 
1.520000e+02 3.469472e+01 5.000000e+00 4.895404e+02 4.730228e+00 4.574969e+02 
1.530000e+02 3.469472e+01 5.000000e+00 4.945404e+02 4.730228e+00 4.622271e+02 
1.540000e+02 3.469472e+01 5.000000e+00 4.995404e+02 4.730228e+00 4.669574e+02 
1.550000e+02 3.469472e+01 5.000000e+00 5.045404e+02 4.730228e+00 4.716876e+02 
1.560000e+02 3.469472e+01 5.000000e+00 5.095404e+02 4.730228e+00 4.764178e+02 
1.570000e+02 3.469472e+01 5.000000e+00 5.145404e+02 4.730228e+00 4.811480e+02 
1.580000e+02 3.469472e+01 5.000000e+00 5.195404e+02 4.730228e+00 4.858783e+02 
1.590000e+02 3.469472e+01 5.000000e+00 5.245404e+02 4.730228e+00 4.906085e+02 
1.600000e+02 3.469472e+01 5.000000e+00 5.295404e+02 4.730228e+00 4.953387e+02 
1.610000e+02 3.469472e+01 5.000000e+00 5.345404e+02 4.730228e+00 5.000689e+02 
1.620000e+02 3.469472e+01 5.000000e+00 5.395404e+02 4.730228e+00 5.047992e+02 
1.630000e+02 3.469472e+01 5.000000e+00 5.445404e+02 4.730228e+00 5.095294e+02 
1.640000e+02 3.469472e+01 5.000000e+00 5.495404e+02 4.730228e+00 5.142596e+02 
1.650000e+02 3.469472e+01 5.000000e+00 5.545404e+02 4.730228e+00 5.189899e+02 
1.660000e+02 3.469472e+01 5.000000e+00 5.595404e+02 4.730228e+00 5.237201e+02 
1.670000e+02 3.469472e+01 5.000000e+00 5.645404e+02 4.730228e+00 5.284503e+02 
1.680000e+02 3.469472e+01 5.000000e+00 5.695404e+02 4.730228e+00 5.331805e+02 
1.690000e+02 3.469472e+01 5.000000e+00 5.745404e+02 4.730228e+00 5.379108e+02 
1.700000e+02 3.469472e+01 5.000000e+00 5.795404e+02 4.730228e+00 5.426410e+02 
1.710000e+02 3.469472e+01 5.000000e+00 5.845404e+02 4.730228e+00 5.473712e+02 
1.720000e+02 3.469472e+01 5.000000e+00 5.895404e+02 4.730228e+00 5.521015e+02 
1.730000e+02 3.469472e+01 5.000000e+00 5.945404e+02 4.730228e+00 5.568317e+02 
1.740000e+02 3.469472e+01 5.000000e+00 5.995404e+02 4.730228e+00 5.615619e+02 
1.750000e+02 3.469472e+01 5.000000e+00 6.045404e+02 4.730228e+00 5.662921e+02 
1.760000e+02 3.469472e+01 5.000000e+00 6.095404e+02 4.730228e+00 5.710224e+02 
1.770000e+02 3.469472e+01 5.000000e+00 6.145404e+02 4.730228e+00 5.757526e+02 
1.780000e+02 3.469472e+01 5.000000e+00 6.195404e+02 4.730228e+00 5.804828e+02 
1.790000e+02 3.469472e+01 5.000000e+00 6.245404e+02 4.730228e+00 5.852130e+02 
1.800000e+02 3.469472e+01 5.000000e+00 6.295404e+02 4.730228e+00 5.899433e+02 
1.810000e+02 3.469472e+01 5.000000e+00 6.345404e+02 4.730228e+00 5.946735e+02 
1.820000e+02 3.469472e+01 5.000000e+00 6.395404e+02 4.730228e+00 5.994037e+02 
1.830000e+02 3.469472e+01 5.000000e+00 6.445404e+02 4.730228e+00 6.041340e+02 
1.840000e+02 3.469472e+01 5.000000e+00 6.495404e+02 4.730228e+00 6.088642e+02 
1.850000e+02 3.469472e+01 5.000000e+00 6.545404e+02 4.730228e+00 6.135944e+02 
1.860000e+02 3.469472e+01 5.000000e+00 6.595404e+02 4.730228e+00 6.183246e+02 
1.870000e+02 3.469472e+01 5.000000e+00 6.645404e+02 4.730228e+00 6.230549e+02 
1.880000e+02 3.469472e+01 5.000000e+00 6.695404e+02 4.730228e+00 6.277851e+02 
1.890000e+02 3.469472e+01 5.000000e+00 6.745404e+02 4.730228e+00 6.325153e+02 
1.900000e+02 3.469472e+01 5.000000e+00 6.795404e+02 4.730228e+00 6.372455e+02 
1.910000e+02 3.469472e+01 5.000000e+00 6.845404e+02 4.730228e+00 6.419758e+02 
1.920000e+02 3.469472e+01 5.000000e+00 6.895404e+02 4.730228e+00 6.467060e+02 
1.930000e+02 3.469472e+01 5.000000e+00 6.945404e+02 4.730228e+00 6.514362e+02 
1.940000e+02 3.469472e+01 5.000000e+00 6.995404e+02 4.730228e+00 6.561665e+02 
1.950000e+02 3.469472e+01 5.000000e+00 7.045404e+02 4.730228e+00 6.608967e+02 
1.960000e+02 3.469472e+01 5.000000e+00 7.095404e+02 4.730228e+00 6.656269e+02 
1.970000e+02 3.469472e+01 5.000000e+00 7.145404e+02 4.730228e+00 6.703571e+02 
1.980000e+02 3.469472e+01 5.000000e+00 7.195404e+02 4.730228e+00 6.750874e+02 
1.990000e+02 3.469472e+01 5.000000e+00 7.245404e+02 4.730228e+00 6.798176e+02 
2.000000e+02 3.469472e+01 5.000000e+00 7.295404e+02 4.730228e+00 6.845478e+02 
2.010000e+02 3.469472e+01 5.000000e+00 7.345404e+02 4.730228e+00 6.892781e+02 
2.020000e+02 3.469472e+01 5.000000e+00 7.395404e+02 4.730228e+00 6.940083e+02 
2.030000e+02 3.469472e+01 5.000000e+00 7.445404e+02 4.730228e+00 6.987385e+02 
2.040000e+02 3.469472e+01 5.000000e+00 7.495404e+02 4.730228e+00 7.034687e+02 
2.050000e+02 3.469472e+01 5.000000e+00 7.545404e+02 4.730228e+00 7.081990e+02 
2.060000e+02 3.469472e+01 5.000000e+00 7.595404e+02 4.730228e+00 7.129292e+02 
2.070000e+02 3.469472e+01 5.000000e+00 7.645404e+02 4.730228e+00 7.176594e+02 
2.080000e+02 3.469472e+01 5.000000e+00 7.695404e+02 4.730228e+00 7.223896e+02 
2.090000e+02 3.469472e+01 5.000000e+00 7.745404e+02 4.730228e+00 7.271199e+02 
2.100000e+02 3.469472e+01 5.000000e+00 7.795404e+02 4.730228e+00 7.318501e+02 
2.110000e+02 3.469472e+01 5.000000e+00 7.845404e+02 4.730228e+00 7.365803e+02 
2.120000e+02 3.469472e+01 5.000000e+00 7.895404e+02 4.730228e+00 7.413106e+02 
2.130000e+02 3.469472e+01 5.000000e+00 7.945404e+02 4.730228e+00 7.460408e+02 
2.140000e+02 3.469472e+01 5.000000e+00 7.995404e+02 4.730228e+00 7.507710e+02 
2.150000e+02 3.469472e+01 5.000000e+00 8.045404e+02 4.730228e+00 7.555012e+02 
2.160000e+02 3.469472e+01 5.000000e+00 8.095404e+02 4.730228e+00 7.602315e+02 
2.170000e+02 3.469472e+01 5.000000e+00 8.145404e+02 4.730228e+00 7.649617e+02 
2.180000e+02 3.469472e+01 5.000000e+00 8.195404e+02 4.730228e+00 7.696919e+02 
2.190000e+02 3.469472e+01 5.000000e+00 8.245404e+02 4.730228e+00 7.744221e+02 
2.200000e+02 3.469472e+01 5.000000e+00 8.295404e+02 4.730228e+00 7.791524e+02 
2.210000e+02 3.469472e+01 5.000000e+00 8.345404e+02 4.730228e+00 7.838826e+02 
2.220000e+02 3.469472e+01 5.000000e+00 8.395404e+02 4.730228e+00 7.886128e+02 
2.230000e+02 3.469472e+01 5.000000e+00 8.445404e+02 4.730228e+00 7.933431e+02 
2.240000e+02 3.469472e+01 5.000000e+00 8.495404e+02 4.730228e+00 7.980733e+02 
2.250000e+02 3.469472e+01 5.000000e+00 8.545404e+02 4.730228e+00 8.028035e+02 
2.260000e+02 3.469472e+01 5.000000e+00 8.595404e+02 4.730228e+00 8.075337e+02 
2.270000e+02 3.469472e+01 5.000000e+00 8.645404e+02 4.730228e+00 8.122640e+02 
2.280000e+02 3.469472e+01 5.000000e+00 8.695404e+02 4.730228e+00 8.169942e+02 
2.290000e+02 3.469472e+01 5.000000e+00 8.745404e+02 4.730228e+00 8.217244e+02 
2.300000e+02 3.469472e+01 5.000000e+00 8.795404e+02 4.730228e+00 8.264547e+02 
2.310000e+02 3.469472e+01 5.000000e+00 8.845404e+02 4.730228e+00 8.311849e+02 
2.320000e+02 3.469472e+01 5.000000e+00 8.895404e+02 4.730228e+00 8.359151e+02 
2.330000e+02 3.469472e+01 5.000000e+00 8.945404e+02 4.730228e+00 8.406453e+02 
2.340000e+02 3.469472e+01 5.000000e+00 8.995404e+02 4.730228e+00 8.453756e+02 
2.350000e+02 3.469472e+01 5.000000e+00 9.045404e+02 4.730228e+00 8.501058e+02 
2.360000e+02 3.469472e+01 5.000000e+00 9.095404e+02 4.730228e+00 8.548360e+02 
2.370000e+02 3.469472e+01 5.000000e+00 9.145404e+02 4.730228e+00 8.595662e+02 
2.380000e+02 3.469472e+01 5.000000e+00 9.195404e+02 4.730228e+00 8.642965e+02 
2.390000e+02 3.469472e+01 5.000000e+00 9.245404e+02 4.730228e+00 8.690267e+02 
2.400000e+02 3.469472e+01 5.000000e+00 9.295404e+02 4.730228e+00 8.737569e+02 
2.410000e+02 3.469472e+01 5.000000e+00 9.345404e+02 4.730228e+00 8.784872e+02 
2.420000e+02 3.469472e+01 5.000000e+00 9.395404e+02 4.730228e+00 8.832174e+02 
2.430000e+02 3.469472e+01 5.000000e+00 9.445404e+02 4.730228e+00 8.879476e+02 
2.440000e+02 3.469472e+01 5.000000e+00 9.495404e+02 4.730228e+00 8.926778e+02 
2.450000e+02 3.469472e+01 5.000000e+00 9.545404e+02 4.730228e+00 8.974081e+02 
2.460000e+02 3.469472e+01 5.000000e+00 9.595404e+02 4.730228e+00 9.021383e+02 
2.470000e+02 3.469472e+01 5.000000e+00 9.645404e+02 4.730228e+00 9.068685e+02 
2.480000e+02 3.469472e+01 5.000000e+00 9.695404e+02 4.730228e+00 9.115987e+02 
2.490000e+02 3.469472e+01 5.000000e+00 9.745404e+02 4.730228e+00 9.163290e+02 
2.500000e+02 3.469472e+01 5.000000e+00 9.795404e+02 4.730228e+00 9.210592e+02 
2.510000e+02 3.469472e+01 5.000000e+00 9.845404e+02 4.730228e+00 9.257894e+02 
2.520000e+02 3.469472e+01 5.000000e+00 9.895404e+02 4.730228e+00 9.305197e+02 
2.530000e+02 3.469472e+01 5.000000e+00 9.945404e+02 4.730228e+00 9.352499e+02 
2.540000e+02 3.469472e+01 5.000000e+00 9.995404e+02 4.730228e+00 9.399801e+02 
2.550000e+02 3.469472e+01 5.000000e+00 1.004540e+03 4.730228e+00 9.447103e+02 
2.560000e+02 3.469472e+01 5.000000e+00 1.009540e+03 4.730228e+00 9.494406e+02 
2.570000e+02 3.469472e+01 5.000000e+00 1.014540e+03 4.730228e+00 9.541708e+02 
2.580000e+02 3.469472e+01 5.000000e+00 1.019540e+03 4.730228e+00 9.589010e+02 
2.590000e+02 3.469472e+01 5.000000e+00 1.024540e+03 4.730228e+00 9.636313e+02 
2.600000e+02 3.469472e+01 5.000000e+00 1.029540e+03 4.730228e+00 9.683615e+02 
2.610000e+02 3.469472e+01 5.000000e+00 1.034540e+03 4.730228e+00 9.730917e+02 
2.620000e+02 3.469472e+01 5.000000e+00 1.039540e+03 4.730228e+00 9.778219e+02 
2.630000e+02 3.469472e+01 5.000000e+00 1.044540e+03 4.730228e+00 9.825522e+02 
2.640000e+02 3.469472e+01 5.000000e+00 1.049540e+03 4.730228e+00 9.872824e+02 
2.650000e+02 3.469472e+01 5.000000e+00 1.054540e+03 4.730228e+00 9.920126e+02 
2.660000e+02 3.469472e+01 5.000000e+00 1.059540e+03 4.730228e+00 9.967428e+02 
2.670000e+02 3.469472e+01 5.000000e+00 1.064540e+03 4.730228e+00 1.001473e+03 
2.680000e+02 3.469472e+01 5.000000e+00 1.069540e+03 4.730228e+00 1.006203e+03 
2.690000e+02 3.469472e+01 5.000000e+00 1.074540e+03 4.730228e+00 1.010934e+03 
2.700000e+02 3.469472e+01 5.000000e+00 1.079540e+03 4.730228e+00 1.015664e+03 
2.710000e+02 3.469472e+01 5.000000e+00 1.084540e+03 4.730228e+00 1.020394e+03 
2.720000e+02 3.469472e+01 5.000000e+00 1.089540e+03 4.730228e+00 1.025124e+03 
2.730000e+02 3.469472e+01 5.000000e+00 1.094540e+03 4.730228e+00 1.029854e+03 
2.740000e+02 3.469472e+01 5.000000e+00 1.099540e+03 4.730228e+00 1.034585e+03 
2.750000e+02 3.469472e+01 5.000000e+00 1.104540e+03 4.730228e+00 1.039315e+03 
2.760000e+02 3.469472e+01 5.000000e+00 1.109540e+03 4.730228e+00 1.044045e+03 
2.770000e+02 3.469472e+01 5.000000e+00 1.114540e+03 4.730228e+00 1.048775e+03 
2.780000e+02 3.469472e+01 5.000000e+00 1.119540e+03 4.730228e+00 1.053506e+03 
2.790000e+02 3.469472e+01 5.000000e+00 1.124540e+03 4.730228e+00 1.058236e+03 
2.800000e+02 3.469472e+01 5.000000e+00 1.129540e+03 4.730228e+00 1.062966e+03 
2.810000e+02 3.469472e+01 5.000000e+00 1.134540e+03 4.730228e+00 1.067696e+03 
2.820000e+02 3.469472e+01 5.000000e+00 1.139540e+03 4.730228e+00 1.072426e+03 
2.830000e+02 3.469472e+01 5.000000e+00 1.144540e+03 4.730228e+00 1.077157e+03 
2.840000e+02 3.469472e+01 5.000000e+00 1.149540e+03 4.730228e+00 1.081887e+03 
2.850000e+02 3.469472e+01 5.000000e+00 1.154540e+03 4.730228e+00 1.086617e+03 
2.860000e+02 3.469472e+01 5.000000e+00 1.159540e+03 4.730228e+00 1.091347e+03 
2.870000e+02 3.469472e+01 5.000000e+00 1.164540e+03 4.730228e+00 1.096078e+03 
2.880000e+02 3.469472e+01 5.000000e+00 1.169540e+03 4.730228e+00 1.100808e+03 
2.890000e+02 3.469472e+01 5.000000e+00 1.174540e+03 4.730228e+00 1.105538e+03 
2.900000e+02 3.469472e+01 5.000000e+00 1.179540e+03 4.730228e+00 1.110268e+03 
2.910000e+02 3.469472e+01 5.000000e+00 1.184540e+03 4.730228e+00 1.114999e+03 
2.920000e+02 3.469472e+01 5.000000e+00 1.189540e+03 4.730228e+00 1.119729e+03 
2.930000e+02 3.469472e+01 5.000000e+00 1.194540e+03 4.730228e+00 1.124459e+03 
2.940000e+02 3.469472e+01 5.000000e+00 1.199540e+03 4.730228e+00 1.129189e+03 
2.950000e+02 3.469472e+01 5.000000e+00 1.204540e+03 4.730228e+00 1.133919e+03 
2.960000e+02 3.469472e+01 5.000000e+00 1.209540e+03 4.730228e+00 1.138650e+03 
2.970000e+02 3.469472e+01 5.000000e+00 1.214540e+03 4.730228e+00 1.143380e+03 
2.980000e+02 3.469472e+01 5.000000e+00 1.219540e+03 4.730228e+00 1.148110e+03 
2.990000e+02 3.469472e+01 5.000000e+00 1.224540e+03 4.730228e+00 1.152840e+03 
3.000000e+02 3.469472e+01 5.000000e+00 1.229540e+03 4.730228e+00 1.157571e+03 
3.010000e+02 3.467882e+01 4.965443e+00 1.234524e+03 4.730228e+00 1.162301e+03 
3.020000e+02 3.462311e+01 4.925443e+00 1.239468e+03 4.730228e+00 1.167031e+03 
3.030000e+02 3.452740e+01 4.885443e+00 1.244372e+03 4.730223e+00 1.171761e+03 
3.040000e+02 3.439312e+01 4.845440e+00 1.249237e+03 4.727606e+00 1.176491e+03 
3.050000e+02 3.423815e+01 4.805390e+00 1.254068e+03 4.705607e+00 1.181216e+03 
3.060000e+02 3.408938e+01 4.765237e+00 1.258872e+03 4.668737e+00 1.185922e+03 
3.070000e+02 3.395444e+01 4.725044e+00 1.263640e+03 4.629902e+00 1.190594e+03 
3.080000e+02 3.383348e+01 4.684846e+00 1.268369e+03 4.591122e+00 1.195228e+03 
3.090000e+02 3.372609e+01 4.644646e+00 1.273057e+03 4.552481e+00 1.199823e+03 
3.100000e+02 3.363177e+01 4.604444e+00 1.277706e+03 4.513994e+00 1.204380e+03 
3.110000e+02 3.354989e+01 4.564241e+00 1.282314e+03 4.475699e+00 1.208898e+03 
3.120000e+02 3.347955e+01 4.524038e+00 1.286881e+03 4.437667e+00 1.213378e+03 
3.130000e+02 3.341944e+01 4.483833e+00 1.291409e+03 4.399991e+00 1.217820e+03 
3.140000e+02 3.336787e+01 4.443628e+00 1.295896e+03 4.362745e+00 1.222224e+03 
3.150000e+02 3.332290e+01 4.403423e+00 1.300342e+03 4.325959e+00 1.226591e+03 
3.160000e+02 3.328261e+01 4.363219e+00 1.304748e+03 4.289605e+00 1.230921e+03 
3.170000e+02 3.324531e+01 4.326104e+00 1.308780e+03 4.256372e+00 1.234886e+03 
3.180000e+02 3.320987e+01 4.285916e+00 1.313106e+03 4.220666e+00 1.239145e+03 
3.190000e+02 3.317506e+01 4.245727e+00 1.317392e+03 4.185173e+00 1.243368e+03 
3.200000e+02 3.314020e+01 4.205538e+00 1.321638e+03 4.149832e+00 1.247556e+03 
3.210000e+02 3.310476e+01 4.165347e+00 1.325844e+03 4.114683e+00 1.251708e+03 
3.220000e+02 3.306835e+01 4.125155e+00 1.330009e+03 4.079640e+00 1.255826e+03 
3.230000e+02 3.303088e+01 4.084961e+00 1.334135e+03 4.044558e+00 1.259908e+03 
3.240000e+02 3.299226e+01 4.044765e+00 1.338220e+03 4.009506e+00 1.263955e+03 
3.250000e+02 3.295241e+01 4.004567e+00 1.342264e+03 3.974493e+00 1.267967e+03 
3.260000e+02 3.291126e+01 3.964367e+00 1.346269e+03 3.939519e+00 1.271945e+03 
3.270000e+02 3.286873e+01 3.924164e+00 1.350233e+03 3.904581e+00 1.275887e+03 
3.280000e+02 3.282476e+01 3.883960e+00 1.354157e+03 3.869680e+00 1.279794e+03 
3.290000e+02 3.277930e+01 3.843753e+00 1.358041e+03 3.834815e+00 1.283667e+03 
3.300000e+02 3.273227e+01 3.803545e+00 1.361885e+03 3.799987e+00 1.287505e+03 
3.310000e+02 3.268361e+01 3.766675e+00 1.365374e+03 3.768085e+00 1.290993e+03 
3.320000e+02 3.263354e+01 3.726482e+00 1.369139e+03 3.733345e+00 1.294762e+03 
3.330000e+02 3.258171e+01 3.686286e+00 1.372864e+03 3.698643e+00 1.298497e+03 
3.340000e+02 3.252804e+01 3.646089e+00 1.376548e+03 3.663980e+00 1.302196e+03 
3.350000e+02 3.247244e+01 3.605889e+00 1.380192e+03 3.629397e+00 1.305862e+03 
3.360000e+02 3.241470e+01 3.565688e+00 1.383796e+03 3.594963e+00 1.309492e+03 
3.370000e+02 3.235478e+01 3.525484e+00 1.387360e+03 3.560474e+00 1.313089e+03 
3.380000e+02 3.229268e+01 3.485278e+00 1.390883e+03 3.525978e+00 1.316651e+03 
3.390000e+02 3.222833e+01 3.445070e+00 1.394366e+03 3.491519e+00 1.320178e+03 
3.400000e+02 3.216165e+01 3.404859e+00 1.397809e+03 3.457100e+00 1.323671e+03 
3.410000e+02 3.209253e+01 3.364646e+00 1.401212e+03 3.422724e+00 1.327130e+03 
3.420000e+02 3.202088e+01 3.324431e+00 1.404575e+03 3.388390e+00 1.330554e+03 
3.430000e+02 3.194660e+01 3.284213e+00 1.407897e+03 3.354098e+00 1.333944e+03 
3.440000e+02 3.186956e+01 3.243993e+00 1.411179e+03 3.319850e+00 1.337299e+03 
3.450000e+02 3.178967e+01 3.203771e+00 1.414421e+03 3.285644e+00 1.340621e+03 
3.460000e+02 3.170682e+01 3.167200e+00 1.417333e+03 3.254583e+00 1.343611e+03 
3.470000e+02 3.162120e+01 3.126996e+00 1.420496e+03 3.220480e+00 1.346865e+03 
3.480000e+02 3.153237e+01 3.086789e+00 1.423619e+03 3.186420e+00 1.350085e+03 
3.490000e+02 3.144021e+01 3.046597e+00 1.426700e+03 3.152420e+00 1.353270e+03 
3.500000e+02 3.134457e+01 3.006413e+00 1.429740e+03 3.118484e+00 1.356420e+03 
3.510000e+02 3.124522e+01 2.966228e+00 1.432740e+03 3.084714e+00 1.359536e+03 
3.520000e+02 3.114196e+01 2.926042e+00 1.435700e+03 3.050974e+00 1.362618e+03 
3.530000e+02 3.103476e+01 2.885854e+00 1.438619e+03 3.017186e+00 1.365667e+03 
3.540000e+02 3.092351e+01 2.845664e+00 1.441498e+03 2.983419e+00 1.368681e+03 
3.550000e+02 3.080807e+01 2.805473e+00 1.444336e+03 2.949693e+00 1.371662e+03 
3.560000e+02 3.068828e+01 2.765280e+00 1.447135e+03 2.916010e+00 1.374609e+03 
3.570000e+02 3.056398e+01 2.725086e+00 1.449893e+03 2.882370e+00 1.377522e+03 
3.580000e+02 3.043500e+01 2.684890e+00 1.452610e+03 2.848771e+00 1.380402e+03 
3.590000e+02 3.030117e+01 2.644693e+00 1.455288e+03 2.815214e+00 1.383247e+03 
3.600000e+02 3.016232e+01 2.604495e+00 1.457925e+03 2.781698e+00 1.386060e+03 
3.610000e+02 3.001827e+01 2.564294e+00 1.460522e+03 2.748222e+00 1.388838e+03 
3.620000e+02 2.986883e+01 2.524092e+00 1.463078e+03 2.714774e+00 1.391584e+03 
3.630000e+02 2.971385e+01 2.487910e+00 1.465344e+03 2.684670e+00 1.394026e+03 
3.640000e+02 2.955361e+01 2.447728e+00 1.467823e+03 2.651192e+00 1.396706e+03 
3.650000e+02 2.938766e+01 2.407543e+00 1.470261e+03 2.617603e+00 1.399352e+03 
3.660000e+02 2.921598e+01 2.367356e+00 1.472659e+03 2.583845e+00 1.401965e+03 
3.670000e+02 2.903861e+01 2.327166e+00 1.475017e+03 2.549869e+00 1.404544e+03 
3.680000e+02 2.885559e+01 2.286974e+00 1.477334e+03 2.515694e+00 1.407088e+03 
3.690000e+02 2.866691e+01 2.246779e+00 1.479611e+03 2.481324e+00 1.409599e+03 
3.700000e+02 2.847271e+01 2.206580e+00 1.481848e+03 2.446548e+00 1.412075e+03 
3.710000e+02 2.827322e+01 2.166377e+00 1.484045e+03 2.411349e+00 1.414516e+03 
3.720000e+02 2.806860e+01 2.126170e+00 1.486202e+03 2.375750e+00 1.416922e+03 
3.730000e+02 2.785901e+01 2.085958e+00 1.488318e+03 2.339728e+00 1.419292e+03 
3.740000e+02 2.764465e+01 2.045743e+00 1.490394e+03 2.303258e+00 1.421625e+03 
3.750000e+02 2.742566e+01 2.005522e+00 1.492430e+03 2.266331e+00 1.423922e+03 
3.760000e+02 2.720221e+01 1.965297e+00 1.494426e+03 2.228943e+00 1.426182e+03 
3.770000e+02 2.697443e+01 1.925066e+00 1.496382e+03 2.191089e+00 1.428405e+03 
3.780000e+02 2.674244e+01 1.884831e+00 1.498297e+03 2.152764e+00 1.430589e+03 
3.790000e+02 2.650634e+01 1.844590e+00 1.500172e+03 2.113961e+00 1.432735e+03 
3.800000e+02 2.626621e+01 1.808813e+00 1.501805e+03 2.079057e+00 1.434609e+03 
3.810000e+02 2.602263e+01 1.768593e+00 1.503603e+03 2.039350e+00 1.436679e+03 
3.820000e+02 2.577516e+01 1.728368e+00 1.505360e+03 1.999126e+00 1.438709e+03 
3.830000e+02 2.552386e+01 1.688138e+00 1.507077e+03 1.958366e+00 1.440699e+03 
3.840000e+02 2.526878e+01 1.647902e+00 1.508754e+03 1.917047e+00 1.442648e+03 
3.850000e+02 2.501080e+01 1.607661e+00 1.510391e+03 1.875101e+00 1.444554e+03 
3.860000e+02 2.475465e+01 1.567386e+00 1.511989e+03 1.832270e+00 1.446420e+03 
3.870000e+02 2.450143e+01 1.527075e+00 1.513547e+03 1.788953e+00 1.448245e+03 
3.880000e+02 2.425159e+01 1.486812e+00 1.515063e+03 1.745261e+00 1.450023e+03 
3.890000e+02 2.400545e+01 1.446543e+00 1.516539e+03 1.701313e+00 1.451757e+03 
3.900000e+02 2.376309e+01 1.406266e+00 1.517974e+03 1.657334e+00 1.453447e+03 
3.910000e+02 2.352444e+01 1.365982e+00 1.519369e+03 1.613493e+00 1.455093e+03 
3.920000e+02 2.329031e+01 1.325646e+00 1.520725e+03 1.568036e+00 1.456697e+03 
3.930000e+02 2.306293e+01 1.285283e+00 1.522041e+03 1.520593e+00 1.458254e+03 
3.940000e+02 2.284273e+01 1.249992e+00 1.523159e+03 1.479175e+00 1.459576e+03 
3.950000e+02 2.262926e+01 1.209708e+00 1.524397e+03 1.433094e+00 1.461041e+03 
3.960000e+02 2.242251e+01 1.169334e+00 1.525596e+03 1.385617e+00 1.462463e+03 
3.970000e+02 2.222468e+01 1.129035e+00 1.526753e+03 1.336185e+00 1.463833e+03 
3.980000e+02 2.203546e+01 1.088680e+00 1.527871e+03 1.287539e+00 1.465156e+03 
3.990000e+02 2.185477e+01 1.048298e+00 1.528948e+03 1.238331e+00 1.466429e+03 
4.000000e+02 2.168442e+01 1.007936e+00 1.529985e+03 1.187425e+00 1.467652e+03 
4.010000e+02 2.153687e+01 1.000000e+00 1.530997e+03 1.137080e+00 1.468826e+03 
4.020000e+02 2.143955e+01 1.000000e+00 1.532010e+03 1.085660e+00 1.469947e+03 
4.030000e+02 2.139388e+01 1.000000e+00 1.533023e+03 1.033499e+00 1.471018e+03 
4.040000e+02 2.140006e+01 1.000000e+00 1.534038e+03 9.808084e-01 1.472036e+03 
4.050000e+02 2.145923e+01 1.000000e+00 1.534908e+03 9.347443e-01 1.472866e+03 
4.060000e+02 2.157180e+01 1.000000e+00 1.535921e+03 8.808740e-01 1.473782e+03 
4.070000e+02 2.173830e+01 1.000000e+00 1.536929e+03 8.267685e-01 1.474639e+03 
4.080000e+02 2.195629e+01 1.000000e+00 1.537933e+03 7.759561e-01 1.475439e+03 
4.090000e+02 2.221712e+01 1.000000e+00 1.538935e+03 7.347633e-01 1.476192e+03 
4.100000e+02 2.250670e+01 1.000000e+00 1.539936e+03 7.078587e-01 1.476911e+03 
4.110000e+02 2.281228e+01 1.000000e+00 1.540937e+03 6.931451e-01 1.477610e+03 
4.120000e+02 2.312597e+01 1.000000e+00 1.541938e+03 6.856454e-01 1.478300e+03 
4.130000e+02 2.344411e+01 1.000000e+00 1.542939e+03 6.814621e-01 1.478983e+03 
4.140000e+02 2.376513e+01 1.000000e+00 1.543940e+03 6.786976e-01 1.479663e+03 
4.150000e+02 2.408828e+01 1.000000e+00 1.544940e+03 6.766312e-01 1.480342e+03 
4.160000e+02 2.441314e+01 1.000000e+00 1.545941e+03 6.749564e-01 1.481018e+03 
4.170000e+02 2.473943e+01 1.000000e+00 1.546942e+03 6.735539e-01 1.481692e+03 
4.180000e+02 2.506695e+01 1.000000e+00 1.547943e+03 6.723475e-01 1.482366e+03 
4.190000e+02 2.539553e+01 1.000000e+00 1.548943e+03 6.712892e-01 1.483038e+03 
4.200000e+02 2.572507e+01 1.000000e+00 1.549944e+03 6.703543e-01 1.483709e+03 
4.210000e+02 2.605545e+01 1.000000e+00 1.550945e+03 6.695214e-01 1.484379e+03 
4.220000e+02 2.638659e+01 1.000000e+00 1.551946e+03 6.687772e-01 1.485049e+03 
4.230000e+02 2.671840e+01 1.000000e+00 1.552946e+03 6.681133e-01 1.485718e+03 
4.240000e+02 2.705081e+01 1.000000e+00 1.553947e+03 6.675214e-01 1.486386e+03 
4.250000e+02 2.738375e+01 1.000000e+00 1.554948e+03 6.669950e-01 1.487054e+03 
4.260000e+02 2.771717e+01 1.000000e+00 1.555948e+03 6.665285e-01 1.487721e+03 
4.270000e+02 2.805100e+01 1.000000e+00 1.556949e+03 6.661163e-01 1.488388e+03 
4.280000e+02 2.838520e+01 1.000000e+00 1.557950e+03 6.657531e-01 1.489054e+03 
4.290000e+02 2.871973e+01 1.000000e+00 1.558950e+03 6.654341e-01 1.489720e+03 
4.300000e+02 2.905454e+01 1.000000e+00 1.559951e+03 6.651545e-01 1.490386e+03 
4.310000e+02 2.938960e+01 1.000000e+00 1.560955e+03 6.649093e-01 1.491053e+03 
4.320000e+02 2.972488e+01 1.000000e+00 1.561969e+03 6.646935e-01 1.491728e+03 
4.330000e+02 3.006034e+01 1.000000e+00 1.562981e+03 6.645062e-01 1.492400e+03 
4.340000e+02 3.039597e+01 1.000000e+00 1.563982e+03 6.643454e-01 1.493065e+03 
4.350000e+02 3.073175e+01 1.000000e+00 1.564980e+03 6.642070e-01 1.493728e+03 
4.360000e+02 3.106764e+01 1.000000e+00 1.565978e+03 6.640922e-01 1.494391e+03 
4.370000e+02 3.140359e+01 1.000000e+00 1.566977e+03 6.640541e-01 1.495054e+03 
4.380000e+02 3.173913e+01 1.000000e+00 1.567977e+03 6.646126e-01 1.495718e+03 
4.390000e+02 3.207127e+01 1.000000e+00 1.568977e+03 6.689034e-01 1.496385e+03 
4.400000e+02 3.238762e+01 1.000000e+00 1.569977e+03 6.879516e-01 1.497063e+03 
4.410000e+02 3.265645e+01 1.000000e+00 1.570977e+03 7.426397e-01 1.497778e+03 
4.420000e+02 3.283236e+01 1.000000e+00 1.571976e+03 8.437173e-01 1.498576e+03 
4.430000e+02 3.289240e+01 1.000000e+00 1.572976e+03 9.607535e-01 1.499488e+03 
4.440000e+02 3.285823e+01 1.000000e+00 1.573975e+03 1.048386e+00 1.500500e+03 
4.450000e+02 3.276915e+01 1.000000e+00 1.574961e+03 1.095956e+00 1.501564e+03 
4.460000e+02 3.265395e+01 1.000000e+00 1.575952e+03 1.118128e+00 1.502664e+03 
4.470000e+02 3.252745e+01 1.000000e+00 1.576947e+03 1.127730e+00 1.503783e+03 
4.480000e+02 3.239613e+01 1.000000e+00 1.577946e+03 1.131844e+00 1.504911e+03 
4.490000e+02 3.226267e+01 1.000000e+00 1.578945e+03 1.133699e+00 1.506044e+03 
4.500000e+02 3.212817e+01 1.000000e+00 1.579945e+03 1.134637e+00 1.507177e+03 
4.510000e+02 3.199305e+01 1.000000e+00 1.580944e+03 1.135194e+00 1.508312e+03 
4.520000e+02 3.185753e+01 1.000000e+00 1.581944e+03 1.135583e+00 1.509448e+03 
4.530000e+02 3.172169e+01 1.000000e+00 1.582944e+03 1.135887e+00 1.510583e+03 
4.540000e+02 3.158559e+01 1.000000e+00 1.583944e+03 1.136143e+00 1.511719e+03 
4.550000e+02 3.144926e+01 1.000000e+00 1.584944e+03 1.136363e+00 1.512855e+03 
4.560000e+02 3.131274e+01 1.000000e+00 1.585944e+03 1.136557e+00 1.513992e+03 
4.570000e+02 3.117604e+01 1.000000e+00 1.586944e+03 1.136728e+00 1.515128e+03 
4.580000e+02 3.103918e+01 1.000000e+00 1.587944e+03 1.136877e+00 1.516265e+03 
4.590000e+02 3.090220e+01 1.000000e+00 1.588944e+03 1.137000e+00 1.517402e+03 
4.600000e+02 3.076514e+01 1.000000e+00 1.589944e+03 1.137078e+00 1.518539e+03 
4.610000e+02 3.062807e+01 1.000000e+00 1.590944e+03 1.137062e+00 1.519676e+03 
4.620000e+02 3.049117e+01 1.000000e+00 1.591944e+03 1.136843e+00 1.520813e+03 
4.630000e+02 3.035482e+01 1.000000e+00 1.592944e+03 1.136223e+00 1.521950e+03 
4.640000e+02 3.021964e+01 1.000000e+00 1.593944e+03 1.134910e+00 1.523086e+03 
4.650000e+02 3.008664e+01 1.000000e+00 1.594945e+03 1.132540e+00 1.524220e+03 
4.660000e+02 2.995716e+01 1.000000e+00 1.595945e+03 1.128754e+00 1.525351e+03 
4.670000e+02 2.983285e+01 1.000000e+00 1.596947e+03 1.123289e+00 1.526478e+03 
4.680000e+02 2.971547e+01 1.000000e+00 1.597948e+03 1.116045e+00 1.527599e+03 
4.690000e+02 2.960673e+01 1.000000e+00 1.598951e+03 1.107110e+00 1.528713e+03 
4.700000e+02 2.950811e+01 1.000000e+00 1.599953e+03 1.096736e+00 1.529817e+03 
4.710000e+02 2.942075e+01 1.000000e+00 1.600956e+03 1.085274e+00 1.530911e+03 
4.720000e+02 2.934542e+01 1.000000e+00 1.601959e+03 1.073124e+00 1.531992e+03 
4.730000e+02 2.928248e+01 1.000000e+00 1.602963e+03 1.060671e+00 1.533062e+03 
4.740000e+02 2.923194e+01 1.000000e+00 1.603966e+03 1.048264e+00 1.534119e+03 
4.750000e+02 2.919351e+01 1.000000e+00 1.604970e+03 1.036192e+00 1.535164e+03 
4.760000e+02 2.916668e+01 1.000000e+00 1.605973e+03 1.024685e+00 1.536197e+03 
4.770000e+02 2.915075e+01 1.000000e+00 1.606976e+03 1.013921e+00 1.537219e+03 
4.780000e+02 2.914487e+01 1.000000e+00 1.607978e+03 1.004020e+00 1.538229e+03 
4.790000e+02 2.914812e+01 1.000000e+00 1.608980e+03 9.950596e-01 1.539229e+03 
4.800000e+02 2.915955e+01 1.000000e+00 1.609981e+03 9.870786e-01 1.540221e+03 
4.810000e+02 2.917816e+01 1.000000e+00 1.610982e+03 9.800844e-01 1.541205e+03 
4.820000e+02 2.920299e+01 1.000000e+00 1.611982e+03 9.740564e-01 1.542182e+03 
4.830000e+02 2.923309e+01 1.000000e+00 1.612983e+03 9.689506e-01 1.543153e+03 
4.840000e+02 2.926762e+01 1.000000e+00 1.613983e+03 9.647032e-01 1.544120e+03 
4.850000e+02 2.930575e+01 1.000000e+00 1.614983e+03 9.612356e-01 1.545082e+03 
4.860000e+02 2.934679e+01 1.000000e+00 1.615983e+03 9.584584e-01 1.546042e+03 
4.870000e+02 2.939013e+01 1.000000e+00 1.616983e+03 9.562775e-01 1.546999e+03 
4.880000e+02 2.943523e+01 1.000000e+00 1.617983e+03 9.545991e-01 1.547954e+03 
4.890000e+02 2.948167e+01 1.000000e+00 1.618983e+03 9.533349e-01 1.548908e+03 
4.900000e+02 2.952911e+01 1.000000e+00 1.619983e+03 9.524066e-01 1.549861e+03 
4.910000e+02 2.957724e+01 1.000000e+00 1.620983e+03 9.517492e-01 1.550813e+03 
4.920000e+02 2.962586e+01 1.000000e+00 1.621983e+03 9.513138e-01 1.551765e+03 
4.930000e+02 2.967475e+01 1.000000e+00 1.622983e+03 9.510687e-01 1.552716e+03 
4.940000e+02 2.972375e+01 1.000000e+00 1.623983e+03 9.510000e-01 1.553667e+03 
4.950000e+02 2.977267e+01 1.000000e+00 1.624983e+03 9.511113e-01 1.554618e+03 
4.960000e+02 2.982132e+01 1.000000e+00 1.625983e+03 9.514221e-01 1.555569e+03 
4.970000e+02 2.986948e+01 1.000000e+00 1.626983e+03 9.519657e-01 1.556521e+03 
4.980000e+02 2.991687e+01 1.000000e+00 1.627983e+03 9.527855e-01 1.557473e+03 
4.990000e+02 2.996318e+01 1.000000e+00 1.628982e+03 9.539305e-01 1.558426e+03 
5.000000e+02 3.000805e+01 1.000000e+00 1.629982e+03 9.554493e-01 1.559381e+03 
5.010000e+02 3.005106e+01 1.000000e+00 1.630982e+03 9.573831e-01 1.560337e+03 
5.020000e+02 3.009179e+01 1.000000e+00 1.631982e+03 9.597594e-01 1.561296e+03 
5.030000e+02 3.012978e+01 1.000000e+00 1.632982e+03 9.625848e-01 1.562257e+03 
5.040000e+02 3.016459e+01 1.000000e+00 1.633982e+03 9.658401e-01 1.563222e+03 
5.050000e+02 3.019584e+01 1.000000e+00 1.634982e+03 9.694786e-01 1.564189e+03 
5.060000e+02 3.022320e+01 1.000000e+00 1.635982e+03 9.734269e-01 1.565161e+03 
5.070000e+02 3.024642e+01 1.000000e+00 1.636982e+03 9.775901e-01 1.566137e+03 
5.080000e+02 3.026540e+01 1.000000e+00 1.637982e+03 9.818601e-01 1.567117e+03 
5.090000e+02 3.028010e+01 1.000000e+00 1.638982e+03 9.861248e-01 1.568101e+03 
5.100000e+02 3.029063e+01 1.000000e+00 1.639982e+03 9.902783e-01 1.569089e+03 
5.110000e+02 3.029716e+01 1.000000e+00 1.640982e+03 9.942288e-01 1.570082e+03 
5.120000e+02 3.029995e+01 1.000000e+00 1.641982e+03 9.979040e-01 1.571078e+03 
5.130000e+02 3.029934e+01 1.000000e+00 1.642982e+03 1.001254e+00 1.572078e+03 
5.140000e+02 3.029566e+01 1.000000e+00 1.643981e+03 1.004249e+00 1.573081e+03 
5.150000e+02 3.028927e+01 1.000000e+00 1.644980e+03 1.006879e+00 1.574086e+03 
5.160000e+02 3.028054e+01 1.000000e+00 1.645980e+03 1.009154e+00 1.575093e+03 
5.170000e+02 3.026981e+01 1.000000e+00 1.646979e+03 1.011090e+00 1.576103e+03 
5.180000e+02 3.025739e+01 1.000000e+00 1.647979e+03 1.012714e+00 1.577115e+03 
5.190000e+02 3.024358e+01 1.000000e+00 1.648978e+03 1.014057e+00 1.578128e+03 
5.200000e+02 3.022863e+01 1.000000e+00 1.649978e+03 1.015148e+00 1.579142e+03 
5.210000e+02 3.021276e+01 1.000000e+00 1.650977e+03 1.016021e+00 1.580157e+03 
5.220000e+02 3.019618e+01 1.000000e+00 1.651977e+03 1.016702e+00 1.581174e+03 
5.230000e+02 3.017906e+01 1.000000e+00 1.652977e+03 1.017218e+00 1.582190e+03 
5.240000e+02 3.016153e+01 1.000000e+00 1.653977e+03 1.017587e+00 1.583208e+03 
5.250000e+02 3.014375e+01 1.000000e+00 1.654977e+03 1.017826e+00 1.584225e+03 
5.260000e+02 3.012582e+01 1.000000e+00 1.655977e+03 1.017946e+00 1.585243e+03 
5.270000e+02 3.010786e+01 1.000000e+00 1.656977e+03 1.017953e+00 1.586261e+03 
5.280000e+02 3.008998e+01 1.000000e+00 1.657977e+03 1.017849e+00 1.587279e+03 
5.290000e+02 3.007230e+01 1.000000e+00 1.658977e+03 1.017636e+00 1.588297e+03 
5.300000e+02 3.005492e+01 1.000000e+00 1.659977e+03 1.017310e+00 1.589314e+03 
5.310000e+02 3.003796e+01 1.000000e+00 1.660977e+03 1.016869e+00 1.590332e+03 
5.320000e+02 3.002153e+01 1.000000e+00 1.661977e+03 1.016311e+00 1.591348e+03 
5.330000e+02 3.000576e+01 1.000000e+00 1.662977e+03 1.015636e+00 1.592364e+03 
5.340000e+02 2.999075e+01 1.000000e+00 1.663978e+03 1.014844e+00 1.593380e+03 
5.350000e+02 2.997663e+01 1.000000e+00 1.664978e+03 1.013941e+00 1.594394e+03 
5.360000e+02 2.996349e+01 1.000000e+00 1.665978e+03 1.012936e+00 1.595408e+03 
5.370000e+02 2.995144e+01 1.000000e+00 1.666978e+03 1.011840e+00 1.596421e+03 
5.380000e+02 2.994054e+01 1.000000e+00 1.667979e+03 1.010667e+00 1.597432e+03 
5.390000e+02 2.993086e+01 1.000000e+00 1.668979e+03 1.009436e+00 1.598442e+03 
5.400000e+02 2.992244e+01 1.000000e+00 1.669979e+03 1.008165e+00 1.599451e+03 
5.410000e+02 2.991532e+01 1.000000e+00 1.670980e+03 1.006874e+00 1.600459e+03 
5.420000e+02 2.990948e+01 1.000000e+00 1.671980e+03 1.005584e+00 1.601466e+03 
5.430000e+02 2.990492e+01 1.000000e+00 1.672981e+03 1.004313e+00 1.602471e+03 
5.440000e+02 2.990160e+01 1.000000e+00 1.673981e+03 1.003080e+00 1.603475e+03 
5.450000e+02 2.989948e+01 1.000000e+00 1.674981e+03 1.001899e+00 1.604478e+03 
5.460000e+02 2.989848e+01 1.000000e+00 1.675982e+03 1.000785e+00 1.605479e+03 
5.470000e+02 2.989853e+01 1.000000e+00 1.676982e+03 9.997460e-01 1.606480e+03 
5.480000e+02 2.989956e+01 1.000000e+00 1.677982e+03 9.987905e-01 1.607479e+03 
5.490000e+02 2.990147e+01 1.000000e+00 1.678982e+03 9.979228e-01 1.608477e+03 
5.500000e+02 2.990418e+01 1.000000e+00 1.679982e+03 9.971450e-01 1.609475e+03 
5.510000e+02 2.990759e+01 1.000000e+00 1.680982e+03 9.964567e-01 1.610472e+03 
5.520000e+02 2.991162e+01 1.000000e+00 1.681982e+03 9.958560e-01 1.611468e+03 
5.530000e+02 2.991618e+01 1.000000e+00 1.682982e+03 9.953395e-01 1.612463e+03 
5.540000e+02 2.992120e+01 1.000000e+00 1.683982e+03 9.949029e-01 1.613458e+03 
5.550000e+02 2.992659e+01 1.000000e+00 1.684982e+03 9.945413e-01 1.614453e+03 
5.560000e+02 2.993229e+01 1.000000e+00 1.685982e+03 9.942497e-01 1.615448e+03 
5.570000e+02 2.993823e+01 1.000000e+00 1.686982e+03 9.940232e-01 1.616442e+03 
5.580000e+02 2.994434e+01 1.000000e+00 1.687982e+03 9.938574e-01 1.617436e+03 
5.590000e+02 2.995057e+01 1.000000e+00 1.688982e+03 9.937484e-01 1.618429e+03 
5.600000e+02 2.995687e+01 1.000000e+00 1.689982e+03 9.936928e-01 1.619423e+03 
5.610000e+02 2.996319e+01 1.000000e+00 1.690982e+03 9.936880e-01 1.620417e+03 
5.620000e+02 2.996947e+01 1.000000e+00 1.691982e+03 9.937317e-01 1.621410e+03 
5.630000e+02 2.997566e+01 1.000000e+00 1.692982e+03 9.938221e-01 1.622404e+03 
5.640000e+02 2.998174e+01 1.000000e+00 1.693982e+03 9.939577e-01 1.623398e+03 
5.650000e+02 2.998764e+01 1.000000e+00 1.694982e+03 9.941368e-01 1.624392e+03 
5.660000e+02 2.999333e+01 1.000000e+00 1.695982e+03 9.943577e-01 1.625386e+03 
5.670000e+02 2.999876e+01 1.000000e+00 1.696982e+03 9.946182e-01 1.626381e+03 
5.680000e+02 3.000391e+01 1.000000e+00 1.697982e+03 9.949158e-01 1.627376e+03 
5.690000e+02 3.000873e+01 1.000000e+00 1.698982e+03 9.952473e-01 1.628371e+03 
5.700000e+02 3.001319e+01 1.000000e+00 1.699982e+03 9.956087e-01 1.629366e+03 
5.710000e+02 3.001727e+01 1.000000e+00 1.700982e+03 9.959957e-01 1.630362e+03 
5.720000e+02 3.002095e+01 1.000000e+00 1.701982e+03 9.964033e-01 1.631358e+03 
5.730000e+02 3.002421e+01 1.000000e+00 1.702982e+03 9.968260e-01 1.632355e+03 
5.740000e+02 3.002703e+01 1.000000e+00 1.703982e+03 9.972582e-01 1.633352e+03 
5.750000e+02 3.002943e+01 1.000000e+00 1.704982e+03 9.976941e-01 1.634349e+03 
5.760000e+02 3.003138e+01 1.000000e+00 1.705982e+03 9.981280e-01 1.635347e+03 
5.770000e+02 3.003291e+01 1.000000e+00 1.706982e+03 9.985544e-01 1.636346e+03 
5.780000e+02 3.003402e+01 1.000000e+00 1.707982e+03 9.989685e-01 1.637345e+03 
5.790000e+02 3.003474e+01 1.000000e+00 1.708982e+03 9.993657e-01 1.638344e+03 
5.800000e+02 3.003507e+01 1.000000e+00 1.709982e+03 9.997423e-01 1.639343e+03 
5.810000e+02 3.003504e+01 1.000000e+00 1.710982e+03 1.000095e+00 1.640343e+03 
5.820000e+02 3.003468e+01 1.000000e+00 1.711982e+03 1.000422e+00 1.641343e+03 
5.830000e+02 3.003402e+01 1.000000e+00 1.712982e+03 1.000721e+00 1.642344e+03 
5.840000e+02 3.003308e+01 1.000000e+00 1.713982e+03 1.000992e+00 1.643345e+03 
5.850000e+02 3.003189e+01 1.000000e+00 1.714982e+03 1.001233e+00 1.644346e+03 
5.860000e+02 3.003048e+01 1.000000e+00 1.715982e+03 1.001446e+00 1.645347e+03 
5.870000e+02 3.002889e+01 1.000000e+00 1.716982e+03 1.001631e+00 1.646349e+03 
5.880000e+02 3.002713e+01 1.000000e+00 1.717981e+03 1.001787e+00 1.647350e+03 
5.890000e+02 3.002523e+01 1.000000e+00 1.718981e+03 1.001918e+00 1.648352e+03 
5.900000e+02 3.002323e+01 1.000000e+00 1.719981e+03 1.002023e+00 1.649354e+03 
5.910000e+02 3.002114e+01 1.000000e+00 1.720981e+03 1.002104e+00 1.650356e+03 
5.920000e+02 3.001899e+01 1.000000e+00 1.721981e+03 1.002162e+00 1.651358e+03 
5.930000e+02 3.001680e+01 1.000000e+00 1.722981e+03 1.002198e+00 1.652360e+03 
5.940000e+02 3.001459e+01 1.000000e+00 1.723981e+03 1.002213e+00 1.653363e+03 
5.950000e+02 3.001237e+01 1.000000e+00 1.724981e+03 1.002210e+00 1.654365e+03 
5.960000e+02 3.001018e+01 1.000000e+00 1.725981e+03 1.002187e+00 1.655367e+03 
5.970000e+02 3.000802e+01 1.000000e+00 1.726981e+03 1.002148e+00 1.656369e+03 
5.980000e+02 3.000592e+01 1.000000e+00 1.727981e+03 1.002092e+00 1.657371e+03 
5.990000e+02 3.000389e+01 1.000000e+00 1.728981e+03 1.002020e+00 1.658373e+03 
6.000000e+02 3.000193e+01 1.000000e+00 1.729981e+03 1.001935e+00 1.659375e+03 
6.010000e+02 3.002462e+01 1.000000e+00 1.730981e+03 9.921921e-01 1.660374e+03 
6.020000e+02 3.007210e+01 1.000000e+00 1.731981e+03 9.677924e-01 1.661352e+03 
6.030000e+02 3.014594e+01 1.000000e+00 1.732982e+03 9.412083e-01 1.662305e+03 
6.040000e+02 3.024751e+01 1.000000e+00 1.733982e+03 9.132832e-01 1.663230e+03 
6.050000e+02 3.037812e+01 1.000000e+00 1.734982e+03 8.840825e-01 1.664126e+03 
6.060000e+02 3.053902e+01 1.000000e+00 1.735982e+03 8.536237e-01 1.664993e+03 
6.070000e+02 3.073146e+01 1.000000e+00 1.736982e+03 8.219209e-01 1.665828e+03 
6.080000e+02 3.095669e+01 1.000000e+00 1.737982e+03 7.889874e-01 1.666631e+03 
6.090000e+02 3.121593e+01 1.000000e+00 1.738982e+03 7.548363e-01 1.667400e+03 
6.100000e+02 3.151038e+01 1.000000e+00 1.739982e+03 7.194805e-01 1.668134e+03 
6.110000e+02 3.184127e+01 1.000000e+00 1.740982e+03 6.829325e-01 1.668832e+03 
6.120000e+02 3.220975e+01 1.000000e+00 1.741982e+03 6.452045e-01 1.669493e+03 
6.130000e+02 3.261703e+01 1.000000e+00 1.742982e+03 6.063084e-01 1.670116e+03 
6.140000e+02 3.306425e+01 1.000000e+00 1.743982e+03 5.662558e-01 1.670699e+03 
6.150000e+02 3.355257e+01 1.000000e+00 1.744982e+03 5.250579e-01 1.671241e+03 
6.160000e+02 3.408314e+01 1.000000e+00 1.745982e+03 4.827256e-01 1.671742e+03 
6.170000e+02 3.465708e+01 1.000000e+00 1.746982e+03 4.392692e-01 1.672199e+03 
6.180000e+02 3.527551e+01 1.000000e+00 1.747982e+03 3.946990e-01 1.672613e+03 
6.190000e+02 3.593955e+01 1.000000e+00 1.748982e+03 3.490256e-01 1.672981e+03 
6.200000e+02 3.665030e+01 1.000000e+00 1.749982e+03 3.022604e-01 1.673303e+03 
6.210000e+02 3.740885e+01 1.000000e+00 1.750981e+03 2.544169e-01 1.673577e+03 
6.220000e+02 3.821628e+01 1.000000e+00 1.751981e+03 2.055161e-01 1.673803e+03 
6.230000e+02 3.907364e+01 1.000000e+00 1.752980e+03 1.555957e-01 1.673979e+03 
6.240000e+02 3.998195e+01 1.000000e+00 1.753977e+03 1.047275e-01 1.674105e+03 
6.250000e+02 4.094212e+01 1.000000e+00 1.754974e+03 5.303971e-02 1.674180e+03 
6.260000e+02 4.195487e+01 1.000000e+00 1.755968e+03 7.534692e-04 1.674202e+03 
6.270000e+02 4.302053e+01 1.000000e+00 1.756962e+03 -5.172977e-02 1.674173e+03 
6.280000e+02 4.413868e+01 1.000000e+00 1.757955e+03 -1.036497e-01 1.674092e+03 
6.290000e+02 4.530748e+01 1.000000e+00 1.758948e+03 -1.536023e-01 1.673960e+03 
6.300000e+02 4.652272e+01 1.000000e+00 1.759942e+03 -1.991206e-01 1.673781e+03 
6.310000e+02 4.777616e+01 1.000000e+00 1.760936e+03 -2.361197e-01 1.673561e+03 
6.320000e+02 4.905348e+01 1.000000e+00 1.761930e+03 -2.584130e-01 1.673312e+03 
6.330000e+02 5.033239e+01 1.000000e+00 1.762924e+03 -2.579771e-01 1.673053e+03 
6.340000e+02 5.158283e+01 1.000000e+00 1.763918e+03 -2.270999e-01 1.672811e+03 
6.350000e+02 5.277145e+01 1.000000e+00 1.764912e+03 -1.628119e-01 1.672619e+03 
6.360000e+02 5.387299e+01 1.000000e+00 1.766049e+03 -5.622263e-02 1.672500e+03 
6.370000e+02 5.486729e+01 1.000000e+00 1.767042e+03 5.040597e-02 1.672503e+03 
6.380000e+02 5.575440e+01 1.000000e+00 1.768036e+03 1.568523e-01 1.672614e+03 
6.390000e+02 5.654040e+01 1.000000e+00 1.769029e+03 2.561910e-01 1.672826e+03 
6.400000e+02 5.723338e+01 1.000000e+00 1.770024e+03 3.475001e-01 1.673132e+03 
6.410000e+02 5.784005e+01 1.000000e+00 1.771018e+03 4.325615e-01 1.673526e+03 
6.420000e+02 5.836502e+01 9.999991e-01 1.772013e+03 5.134906e-01 1.674002e+03 
6.430000e+02 5.881121e+01 9.998979e-01 1.773010e+03 5.918474e-01 1.674557e+03 
6.440000e+02 5.918055e+01 9.995599e-01 1.774007e+03 6.685080e-01 1.675191e+03 
6.450000e+02 5.947465e+01 9.990670e-01 1.775005e+03 7.436583e-01 1.675901e+03 
6.460000e+02 5.969547e+01 9.985820e-01 1.776003e+03 8.165804e-01 1.676685e+03 
6.470000e+02 5.984640e+01 9.982206e-01 1.776999e+03 8.853998e-01 1.677538e+03 
6.480000e+02 5.993383e+01 9.980128e-01 1.777995e+03 9.469408e-01 1.678457e+03 
6.490000e+02 5.996901e+01 9.979273e-01 1.778992e+03 9.958588e-01 1.679431e+03 
6.500000e+02 5.996924e+01 9.979077e-01 1.779989e+03 1.025951e+00 1.680445e+03 
6.510000e+02 5.997647e+01 9.979038e-01 1.780987e+03 1.032574e+00 1.681476e+03 
6.520000e+02 5.999985e+01 9.979014e-01 1.781986e+03 1.013589e+00 1.682500e+03 
6.530000e+02 6.006376e+01 9.979005e-01 1.782986e+03 9.701119e-01 1.683493e+03 
6.540000e+02 6.019010e+01 9.979009e-01 1.783988e+03 9.062512e-01 1.684432e+03 
6.550000e+02 6.039521e+01 9.979023e-01 1.784990e+03 8.270222e-01 1.685297e+03 
6.560000e+02 6.069061e+01 9.979049e-01 1.785992e+03 7.370377e-01 1.686076e+03 
6.570000e+02 6.108397e+01 9.979087e-01 1.786992e+03 6.400164e-01 1.686760e+03 
6.580000e+02 6.158008e+01 9.979143e-01 1.787990e+03 5.385794e-01 1.687342e+03 
6.590000e+02 6.218187e+01 9.979225e-01 1.788988e+03 4.343228e-01 1.687821e+03 
6.600000e+02 6.289122e+01 9.979345e-01 1.789985e+03 3.280704e-01 1.688194e+03 
6.610000e+02 6.370951e+01 9.979517e-01 1.790982e+03 2.202435e-01 1.688460e+03 
6.620000e+02 6.463791e+01 9.979703e-01 1.791978e+03 1.110644e-01 1.688618e+03 
6.630000e+02 6.567747e+01 9.978587e-01 1.792973e+03 7.507339e-04 1.688666e+03 
6.640000e+02 6.682893e+01 9.972627e-01 1.793966e+03 -1.103606e-01 1.688603e+03 
6.650000e+02 6.809257e+01 9.957467e-01 1.794959e+03 -2.217036e-01 1.688430e+03 
6.660000e+02 6.946792e+01 1.000000e+00 1.795960e+03 -3.329660e-01 1.688144e+03 
6.670000e+02 7.095291e+01 1.000000e+00 1.796960e+03 -4.419892e-01 1.687749e+03 
6.680000e+02 7.254405e+01 1.000000e+00 1.797957e+03 -5.470105e-01 1.687248e+03 
6.690000e+02 7.423604e+01 1.000000e+00 1.798955e+03 -6.464072e-01 1.686645e+03 
6.700000e+02 7.602158e+01 1.000000e+00 1.799952e+03 -7.384112e-01 1.685947e+03 
6.710000e+02 7.789222e+01 1.000000e+00 1.800950e+03 -8.221107e-01 1.685162e+03 
6.720000e+02 7.984124e+01 1.000000e+00 1.801947e+03 -9.001817e-01 1.684298e+03 
6.730000e+02 8.186854e+01 1.000000e+00 1.802943e+03 -9.794442e-01 1.683356e+03 
6.740000e+02 8.397549e+01 1.000000e+00 1.803935e+03 -1.058838e+00 1.682340e+03 
6.750000e+02 8.615679e+01 1.000000e+00 1.804927e+03 -1.131601e+00 1.681248e+03 
6.760000e+02 8.840227e+01 1.000000e+00 1.805919e+03 -1.194214e+00 1.680088e+03 
6.770000e+02 9.070032e+01 1.000000e+00 1.806913e+03 -1.245485e+00 1.678871e+03 
6.780000e+02 9.303789e+01 1.000000e+00 1.807909e+03 -1.283841e+00 1.677609e+03 
6.790000e+02 9.539993e+01 1.000000e+00 1.808905e+03 -1.307199e+00 1.676315e+03 
6.800000e+02 9.776935e+01 1.000000e+00 1.809903e+03 -1.313499e+00 1.675006e+03 
6.810000e+02 1.001270e+02 1.000000e+00 1.810898e+03 -1.300890e+00 1.673704e+03 
6.820000e+02 1.024519e+02 1.000000e+00 1.811892e+03 -1.267136e+00 1.672428e+03 
6.830000e+02 1.047196e+02 1.000000e+00 1.812887e+03 -1.208927e+00 1.671197e+03 
6.840000e+02 1.069017e+02 1.000000e+00 1.813883e+03 -1.121778e+00 1.670040e+03 
6.850000e+02 1.089693e+02 1.000000e+00 1.815003e+03 -9.827152e-01 1.668865e+03 
6.860000e+02 1.108759e+02 1.000000e+00 1.815999e+03 -8.189516e-01 1.667974e+03 
6.870000e+02 1.125861e+02 1.000000e+00 1.816995e+03 -6.165757e-01 1.667268e+03 
6.880000e+02 1.140670e+02 1.000000e+00 1.817991e+03 -3.835993e-01 1.666781e+03 
6.890000e+02 1.152997e+02 1.000000e+00 1.818988e+03 -1.354463e-01 1.666536e+03 
6.900000e+02 1.162843e+02 1.000000e+00 1.819986e+03 1.086779e-01 1.666538e+03 
6.910000e+02 1.170390e+02 1.000000e+00 1.820984e+03 3.318469e-01 1.666773e+03 
6.920000e+02 1.175941e+02 1.000000e+00 1.821981e+03 5.238939e-01 1.667213e+03 
6.930000e+02 1.179832e+02 1.000000e+00 1.822975e+03 6.818814e-01 1.667823e+03 
6.940000e+02 1.182386e+02 1.000000e+00 1.823967e+03 8.086554e-01 1.668572e+03 
6.950000e+02 1.183889e+02 1.000000e+00 1.824959e+03 9.077137e-01 1.669431e+03 
6.960000e+02 1.184604e+02 1.000000e+00 1.825953e+03 9.813831e-01 1.670375e+03 
6.970000e+02 1.184777e+02 1.000000e+00 1.826949e+03 1.030624e+00 1.671381e+03 
6.980000e+02 1.184654e+02 1.000000e+00 1.827946e+03 1.055360e+00 1.672424e+03 
6.990000e+02 1.184486e+02 1.000000e+00 1.828944e+03 1.054885e+00 1.673479e+03 
7.000000e+02 1.184533e+02 1.000000e+00 1.829944e+03 1.028183e+00 1.674520e+03 
7.010000e+02 1.184429e+02 1.000000e+00 1.830945e+03 1.015450e+00 1.675536e+03 
7.020000e+02 1.184081e+02 1.000000e+00 1.831946e+03 1.036137e+00 1.676564e+03 
7.030000e+02 1.183627e+02 1.000000e+00 1.832946e+03 1.042061e+00 1.677605e+03 
7.040000e+02 1.183290e+02 1.000000e+00 1.833947e+03 1.025779e+00 1.678641e+03 
7.050000e+02 1.183287e+02 1.000000e+00 1.834950e+03 9.884334e-01 1.679650e+03 
7.060000e+02 1.183796e+02 1.000000e+00 1.835953e+03 9.342297e-01 1.680613e+03 
7.070000e+02 1.184941e+02 1.000000e+00 1.836957e+03 8.688397e-01 1.681515e+03 
7.080000e+02 1.186785e+02 1.000000e+00 1.837962e+03 7.985721e-01 1.682349e+03 
7.090000e+02 1.189325e+02 1.000000e+00 1.838967e+03 7.297445e-01 1.683112e+03 
7.100000e+02 1.192503e+02 1.000000e+00 1.839971e+03 6.682090e-01 1.683810e+03 
7.110000e+02 1.196205e+02 1.000000e+00 1.840975e+03 6.190516e-01 1.684452e+03 
7.120000e+02 1.200275e+02 1.000000e+00 1.841977e+03 5.864690e-01 1.685052e+03 
7.130000e+02 1.204521e+02 1.000000e+00 1.842977e+03 5.737547e-01 1.685630e+03 
7.140000e+02 1.208727e+02 1.000000e+00 1.843975e+03 5.830306e-01 1.686206e+03 
7.150000e+02 1.212666e+02 1.000000e+00 1.844973e+03 6.148239e-01 1.686804e+03 
7.160000e+02 1.216126e+02 1.000000e+00 1.845971e+03 6.666161e-01 1.687445e+03 
7.170000e+02 1.218954e+02 1.000000e+00 1.846969e+03 7.318628e-01 1.688146e+03 
7.180000e+02 1.221087e+02 1.000000e+00 1.847966e+03 8.010115e-01 1.688914e+03 
7.190000e+02 1.222561e+02 1.000000e+00 1.848964e+03 8.647485e-01 1.689749e+03 
7.200000e+02 1.223477e+02 1.000000e+00 1.849961e+03 9.175306e-01 1.690642e+03 
7.210000e+02 1.223954e+02 1.000000e+00 1.850959e+03 9.590673e-01 1.691582e+03 
7.220000e+02 1.224079e+02 1.000000e+00 1.851957e+03 9.932101e-01 1.692559e+03 
7.230000e+02 1.223883e+02 1.000000e+00 1.852956e+03 1.025385e+00 1.693568e+03 
7.240000e+02 1.223349e+02 1.000000e+00 1.853954e+03 1.060150e+00 1.694611e+03 
7.250000e+02 1.222430e+02 1.000000e+00 1.854952e+03 1.099798e+00 1.695690e+03 
7.260000e+02 1.221076e+02 1.000000e+00 1.855950e+03 1.144053e+00 1.696812e+03 
7.270000e+02 1.219259e+02 1.000000e+00 1.856948e+03 1.190513e+00 1.697980e+03 
7.280000e+02 1.216985e+02 1.000000e+00 1.857946e+03 1.235466e+00 1.699193e+03 
7.290000e+02 1.214301e+02 1.000000e+00 1.858944e+03 1.274770e+00 1.700449e+03 
7.300000e+02 1.211296e+02 1.000000e+00 1.859942e+03 1.304631e+00 1.701739e+03 
7.310000e+02 1.208088e+02 1.000000e+00 1.860942e+03 1.322207e+00 1.703054e+03 
7.320000e+02 1.204812e+02 1.000000e+00 1.861942e+03 1.326005e+00 1.704379e+03 
7.330000e+02 1.201608e+02 1.000000e+00 1.862942e+03 1.316077e+00 1.705701e+03 
7.340000e+02 1.198601e+02 1.000000e+00 1.863944e+03 1.293944e+00 1.707008e+03 
7.350000e+02 1.195894e+02 1.000000e+00 1.864946e+03 1.262290e+00 1.708287e+03 
7.360000e+02 1.193555e+02 1.000000e+00 1.865948e+03 1.224427e+00 1.709532e+03 
7.370000e+02 1.191620e+02 1.000000e+00 1.866951e+03 1.183669e+00 1.710737e+03 
7.380000e+02 1.190095e+02 1.000000e+00 1.867953e+03 1.142752e+00 1.711901e+03 
7.390000e+02 1.188968e+02 1.000000e+00 1.868956e+03 1.103443e+00 1.713024e+03 
7.400000e+02 1.188216e+02 1.000000e+00 1.869958e+03 1.066431e+00 1.714110e+03 
7.410000e+02 1.187817e+02 1.000000e+00 1.870961e+03 1.031495e+00 1.715159e+03 
7.420000e+02 1.187755e+02 1.000000e+00 1.871963e+03 9.978896e-01 1.716174e+03 
7.430000e+02 1.188025e+02 1.000000e+00 1.872965e+03 9.647993e-01 1.717155e+03 
7.440000e+02 1.188624e+02 1.000000e+00 1.873967e+03 9.317403e-01 1.718104e+03 
7.450000e+02 1.189553e+02 1.000000e+00 1.874969e+03 8.988039e-01 1.719019e+03 
7.460000e+02 1.190806e+02 1.000000e+00 1.875972e+03 8.667159e-01 1.719902e+03 
7.470000e+02 1.192364e+02 1.000000e+00 1.876974e+03 8.367353e-01 1.720753e+03 
7.480000e+02 1.194195e+02 1.000000e+00 1.877976e+03 8.104455e-01 1.721577e+03 
7.490000e+02 1.196250e+02 1.000000e+00 1.878977e+03 7.894971e-01 1.722376e+03 
7.500000e+02 1.198464e+02 1.000000e+00 1.879979e+03 7.753454e-01 1.723158e+03 
7.510000e+02 1.200760e+02 1.000000e+00 1.880979e+03 7.690213e-01 1.723930e+03 
7.520000e+02 1.203057e+02 1.000000e+00 1.881980e+03 7.709636e-01 1.724699e+03 
7.530000e+02 1.205273e+02 1.000000e+00 1.882979e+03 7.809397e-01 1.725475e+03 
7.540000e+02 1.207334e+02 1.000000e+00 1.883978e+03 7.980870e-01 1.726264e+03 
7.550000e+02 1.209177e+02 1.000000e+00 1.884977e+03 8.210574e-01 1.727074e+03 
7.560000e+02 1.210756e+02 1.000000e+00 1.885976e+03 8.482447e-01 1.727909e+03 
7.570000e+02 1.212041e+02 1.000000e+00 1.886974e+03 8.780499e-01 1.728772e+03 
7.580000e+02 1.213017e+02 1.000000e+00 1.887973e+03 9.091123e-01 1.729666e+03 
7.590000e+02 1.213679e+02 1.000000e+00 1.888971e+03 9.404465e-01 1.730591e+03 
7.600000e+02 1.214030e+02 1.000000e+00 1.889970e+03 9.714576e-01 1.731548e+03 
7.610000e+02 1.214074e+02 1.000000e+00 1.890968e+03 1.001851e+00 1.732535e+03 
7.620000e+02 1.213821e+02 1.000000e+00 1.891967e+03 1.031472e+00 1.733552e+03 
7.630000e+02 1.213278e+02 1.000000e+00 1.892965e+03 1.060135e+00 1.734598e+03 
7.640000e+02 1.212458e+02 1.000000e+00 1.893964e+03 1.087493e+00 1.735672e+03 
7.650000e+02 1.211378e+02 1.000000e+00 1.894963e+03 1.112972e+00 1.736773e+03 
7.660000e+02 1.210063e+02 1.000000e+00 1.895962e+03 1.135795e+00 1.737897e+03 
7.670000e+02 1.208546e+02 1.000000e+00 1.896961e+03 1.155067e+00 1.739043e+03 
7.680000e+02 1.206870e+02 1.000000e+00 1.897960e+03 1.169914e+00 1.740206e+03 
7.690000e+02 1.205085e+02 1.000000e+00 1.898960e+03 1.179619e+00 1.741382e+03 
7.700000e+02 1.203246e+02 1.000000e+00 1.899960e+03 1.183744e+00 1.742564e+03 
7.710000e+02 1.201409e+02 1.000000e+00 1.900960e+03 1.182190e+00 1.743747e+03 
7.720000e+02 1.199631e+02 1.000000e+00 1.901961e+03 1.175208e+00 1.744927e+03 
7.730000e+02 1.197960e+02 1.000000e+00 1.902961e+03 1.163347e+00 1.746097e+03 
7.740000e+02 1.196441e+02 1.000000e+00 1.903962e+03 1.147370e+00 1.747253e+03 
7.750000e+02 1.195107e+02 1.000000e+00 1.904964e+03 1.128140e+00 1.748391e+03 
7.760000e+02 1.193984e+02 1.000000e+00 1.905965e+03 1.106532e+00 1.749509e+03 
7.770000e+02 1.193090e+02 1.000000e+00 1.906967e+03 1.083344e+00 1.750604e+03 
7.780000e+02 1.192436e+02 1.000000e+00 1.907968e+03 1.059258e+00 1.751676e+03 
7.790000e+02 1.192025e+02 1.000000e+00 1.908970e+03 1.034829e+00 1.752723e+03 
7.800000e+02 1.191857e+02 1.000000e+00 1.909972e+03 1.010510e+00 1.753746e+03 
7.810000e+02 1.191930e+02 1.000000e+00 1.910973e+03 9.866872e-01 1.754745e+03 
7.820000e+02 1.192234e+02 1.000000e+00 1.911975e+03 9.637327e-01 1.755720e+03 
7.830000e+02 1.192758e+02 1.000000e+00 1.912976e+03 9.420400e-01 1.756673e+03 
7.840000e+02 1.193487e+02 1.000000e+00 1.913978e+03 9.220466e-01 1.757605e+03 
7.850000e+02 1.194399e+02 1.000000e+00 1.914979e+03 9.042327e-01 1.758518e+03 
7.860000e+02 1.195470e+02 1.000000e+00 1.915980e+03 8.890977e-01 1.759415e+03 
7.870000e+02 1.196668e+02 1.000000e+00 1.916981e+03 8.771198e-01 1.760297e+03 
7.880000e+02 1.197960e+02 1.000000e+00 1.917982e+03 8.687079e-01 1.761170e+03 
7.890000e+02 1.199307e+02 1.000000e+00 1.918982e+03 8.641538e-01 1.762037e+03 
7.900000e+02 1.200670e+02 1.000000e+00 1.919983e+03 8.635957e-01 1.762900e+03 
7.910000e+02 1.202008e+02 1.000000e+00 1.920983e+03 8.669979e-01 1.763766e+03 
7.920000e+02 1.203284e+02 1.000000e+00 1.921982e+03 8.741517e-01 1.764636e+03 
7.930000e+02 1.204462e+02 1.000000e+00 1.922982e+03 8.846970e-01 1.765515e+03 
7.940000e+02 1.205513e+02 1.000000e+00 1.923981e+03 8.981589e-01 1.766407e+03 
7.950000e+02 1.206410e+02 1.000000e+00 1.924980e+03 9.139919e-01 1.767313e+03 
7.960000e+02 1.207135e+02 1.000000e+00 1.925980e+03 9.316231e-01 1.768236e+03 
7.970000e+02 1.207673e+02 1.000000e+00 1.926979e+03 9.504884e-01 1.769177e+03 
7.980000e+02 1.208017e+02 1.000000e+00 1.927978e+03 9.700548e-01 1.770138e+03 
7.990000e+02 1.208163e+02 1.000000e+00 1.928977e+03 9.898286e-01 1.771118e+03 
8.000000e+02 1.208113e+02 1.000000e+00 1.929976e+03 1.009352e+00 1.772118e+03 
8.010000e+02 1.207873e+02 1.000000e+00 1.930975e+03 1.028191e+00 1.773137e+03 
8.020000e+02 1.207452e+02 1.000000e+00 1.931974e+03 1.045930e+00 1.774174e+03 
8.030000e+02 1.206864e+02 1.000000e+00 1.932973e+03 1.062161e+00 1.775228e+03 
8.040000e+02 1.206128e+02 1.000000e+00 1.933972e+03 1.076492e+00 1.776298e+03 
8.050000e+02 1.205266e+02 1.000000e+00 1.934972e+03 1.088558e+00 1.777381e+03 
8.060000e+02 1.204303e+02 1.000000e+00 1.935971e+03 1.098043e+00 1.778474e+03 
8.070000e+02 1.203266e+02 1.000000e+00 1.936971e+03 1.104699e+00 1.779576e+03 
8.080000e+02 1.202185e+02 1.000000e+00 1.937971e+03 1.108371e+00 1.780683e+03 
8.090000e+02 1.201091e+02 1.000000e+00 1.938971e+03 1.109007e+00 1.781792e+03 
8.100000e+02 1.200013e+02 1.000000e+00 1.939971e+03 1.106666e+00 1.782900e+03 
8.110000e+02 1.198980e+02 1.000000e+00 1.940972e+03 1.101509e+00 1.784004e+03 
8.120000e+02 1.198019e+02 1.000000e+00 1.941972e+03 1.093789e+00 1.785102e+03 
8.130000e+02 1.197152e+02 1.000000e+00 1.942973e+03 1.083829e+00 1.786191e+03 
8.140000e+02 1.196399e+02 1.000000e+00 1.943973e+03 1.071997e+00 1.787270e+03 
8.150000e+02 1.195776e+02 1.000000e+00 1.944974e+03 1.058692e+00 1.788335e+03 
8.160000e+02 1.195294e+02 1.000000e+00 1.945975e+03 1.044316e+00 1.789387e+03 
8.170000e+02 1.194962e+02 1.000000e+00 1.946976e+03 1.029271e+00 1.790424e+03 
8.180000e+02 1.194783e+02 1.000000e+00 1.947977e+03 1.013943e+00 1.791446e+03 
8.190000e+02 1.194756e+02 1.000000e+00 1.948978e+03 9.987056e-01 1.792452e+03 
8.200000e+02 1.194879e+02 1.000000e+00 1.949979e+03 9.839139e-01 1.793443e+03 
8.210000e+02 1.195143e+02 1.000000e+00 1.950980e+03 9.699069e-01 1.794420e+03 
8.220000e+02 1.195540e+02 1.000000e+00 1.951981e+03 9.570053e-01 1.795384e+03 
8.230000e+02 1.196056e+02 1.000000e+00 1.952982e+03 9.455079e-01 1.796335e+03 
8.240000e+02 1.196674e+02 1.000000e+00 1.953983e+03 9.356851e-01 1.797275e+03 
8.250000e+02 1.197376e+02 1.000000e+00 1.954983e+03 9.277702e-01 1.798207e+03 
8.260000e+02 1.198142e+02 1.000000e+00 1.955984e+03 9.219491e-01 1.799132e+03 
8.270000e+02 1.198950e+02 1.000000e+00 1.956984e+03 9.183507e-01 1.800052e+03 
8.280000e+02 1.199776e+02 1.000000e+00 1.957984e+03 9.170389e-01 1.800970e+03 
8.290000e+02 1.200599e+02 1.000000e+00 1.958984e+03 9.180073e-01 1.801887e+03 
8.300000e+02 1.201395e+02 1.000000e+00 1.959984e+03 9.211799e-01 1.802806e+03 
8.310000e+02 1.202144e+02 1.000000e+00 1.960984e+03 9.264151e-01 1.803730e+03 
8.320000e+02 1.202827e+02 1.000000e+00 1.961983e+03 9.335124e-01 1.804660e+03 
8.330000e+02 1.203426e+02 1.000000e+00 1.962983e+03 9.422227e-01 1.805598e+03 
8.340000e+02 1.203928e+02 1.000000e+00 1.963983e+03 9.522580e-01 1.806545e+03 
8.350000e+02 1.204321e+02 1.000000e+00 1.964982e+03 9.633058e-01 1.807503e+03 
8.360000e+02 1.204599e+02 1.000000e+00 1.965982e+03 9.750430e-01 1.808472e+03 
8.370000e+02 1.204756e+02 1.000000e+00 1.966981e+03 9.871409e-01 1.809454e+03 
8.380000e+02 1.204792e+02 1.000000e+00 1.967980e+03 9.992746e-01 1.810447e+03 
8.390000e+02 1.204708e+02 1.000000e+00 1.968980e+03 1.011129e+00 1.811452e+03 
8.400000e+02 1.204509e+02 1.000000e+00 1.969979e+03 1.022405e+00 1.812469e+03 
8.410000e+02 1.204204e+02 1.000000e+00 1.970979e+03 1.032824e+00 1.813497e+03 
8.420000e+02 1.203803e+02 1.000000e+00 1.971978e+03 1.042133e+00 1.814535e+03 
8.430000e+02 1.203319e+02 1.000000e+00 1.972978e+03 1.050111e+00 1.815581e+03 
8.440000e+02 1.202767e+02 1.000000e+00 1.973978e+03 1.056575e+00 1.816634e+03 
8.450000e+02 1.202162e+02 1.000000e+00 1.974977e+03 1.061385e+00 1.817694e+03 
8.460000e+02 1.201522e+02 1.000000e+00 1.975977e+03 1.064450e+00 1.818757e+03 
8.470000e+02 1.200864e+02 1.000000e+00 1.976977e+03 1.065728e+00 1.819822e+03 
8.480000e+02 1.200208e+02 1.000000e+00 1.977977e+03 1.065233e+00 1.820888e+03 
8.490000e+02 1.199569e+02 1.000000e+00 1.978977e+03 1.063025e+00 1.821952e+03 
8.500000e+02 1.198965e+02 1.000000e+00 1.979978e+03 1.059213e+00 1.823013e+03 
8.510000e+02 1.198410e+02 1.000000e+00 1.980978e+03 1.053949e+00 1.824070e+03 
8.520000e+02 1.197918e+02 1.000000e+00 1.981978e+03 1.047418e+00 1.825121e+03 
8.530000e+02 1.197498e+02 1.000000e+00 1.982979e+03 1.039830e+00 1.826165e+03 
8.540000e+02 1.197161e+02 1.000000e+00 1.983979e+03 1.031417e+00 1.827200e+03 
8.550000e+02 1.196913e+02 1.000000e+00 1.984980e+03 1.022423e+00 1.828227e+03 
8.560000e+02 1.196758e+02 1.000000e+00 1.985981e+03 1.013096e+00 1.829245e+03 
8.570000e+02 1.196696e+02 1.000000e+00 1.986981e+03 1.003683e+00 1.830254e+03 
8.580000e+02 1.196728e+02 1.000000e+00 1.987982e+03 9.944261e-01 1.831253e+03 
8.590000e+02 1.196850e+02 1.000000e+00 1.988982e+03 9.855577e-01 1.832243e+03 
8.600000e+02 1.197056e+02 1.000000e+00 1.989983e+03 9.772941e-01 1.833224e+03 
8.610000e+02 1.197338e+02 1.000000e+00 1.990983e+03 9.698328e-01 1.834198e+03 
8.620000e+02 1.197689e+02 1.000000e+00 1.991984e+03 9.633483e-01 1.835164e+03 
8.630000e+02 1.198095e+02 1.000000e+00 1.992984e+03 9.579877e-01 1.836125e+03 
8.640000e+02 1.198547e+02 1.000000e+00 1.993985e+03 9.538672e-01 1.837081e+03 
8.650000e+02 1.199029e+02 1.000000e+00 1.994984e+03 9.510695e-01 1.838033e+03 
8.660000e+02 1.199530e+02 1.000000e+00 1.995984e+03 9.496388e-01 1.838983e+03 
8.670000e+02 1.200034e+02 1.000000e+00 1.996984e+03 9.495830e-01 1.839932e+03 
8.680000e+02 1.200529e+02 1.000000e+00 1.997984e+03 9.508726e-01 1.840882e+03 
8.690000e+02 1.201001e+02 1.000000e+00 1.998984e+03 9.534418e-01 1.841834e+03 
8.700000e+02 1.201439e+02 1.000000e+00 1.999984e+03 9.571908e-01 1.842790e+03 
8.710000e+02 1.201831e+02 1.000000e+00 2.000984e+03 9.619898e-01 1.843749e+03 
8.720000e+02 1.202169e+02 1.000000e+00 2.001983e+03 9.676839e-01 1.844714e+03 
8.730000e+02 1.202444e+02 1.000000e+00 2.002983e+03 9.740975e-01 1.845685e+03 
8.740000e+02 1.202650e+02 1.000000e+00 2.003983e+03 9.810409e-01 1.846663e+03 
8.750000e+02 1.202785e+02 1.000000e+00 2.004983e+03 9.883140e-01 1.847648e+03 
8.760000e+02 1.202846e+02 1.000000e+00 2.005983e+03 9.957154e-01 1.848640e+03 
8.770000e+02 1.202833e+02 1.000000e+00 2.006982e+03 1.003046e+00 1.849640e+03 
8.780000e+02 1.202748e+02 1.000000e+00 2.007982e+03 1.010114e+00 1.850646e+03 
8.790000e+02 1.202596e+02 1.000000e+00 2.008982e+03 1.016739e+00 1.851660e+03 
8.800000e+02 1.202383e+02 1.000000e+00 2.009981e+03 1.022756e+00 1.852680e+03 
8.810000e+02 1.202114e+02 1.000000e+00 2.010981e+03 1.028021e+00 1.853705e+03 
8.820000e+02 1.201800e+02 1.000000e+00 2.011981e+03 1.032414e+00 1.854735e+03 
8.830000e+02 1.201448e+02 1.000000e+00 2.012981e+03 1.035840e+00 1.855770e+03 
8.840000e+02 1.201070e+02 1.000000e+00 2.013980e+03 1.038232e+00 1.856807e+03 
8.850000e+02 1.200676e+02 1.000000e+00 2.014980e+03 1.039554e+00 1.857846e+03 
8.860000e+02 1.200277e+02 1.000000e+00 2.015980e+03 1.039799e+00 1.858886e+03 
8.870000e+02 1.199884e+02 1.000000e+00 2.016980e+03 1.038988e+00 1.859925e+03 
8.880000e+02 1.199506e+02 1.000000e+00 2.017981e+03 1.037173e+00 1.860963e+03 
8.890000e+02 1.199154e+02 1.000000e+00 2.018981e+03 1.034428e+00 1.861999e+03 
8.900000e+02 1.198835e+02 1.000000e+00 2.019981e+03 1.030852e+00 1.863032e+03 
8.910000e+02 1.198558e+02 1.000000e+00 2.020981e+03 1.026561e+00 1.864061e+03 
8.920000e+02 1.198328e+02 1.000000e+00 2.021981e+03 1.021689e+00 1.865085e+03 
8.930000e+02 1.198150e+02 1.000000e+00 2.022982e+03 1.016378e+00 1.866104e+03 
8.940000e+02 1.198027e+02 1.000000e+00 2.023982e+03 1.010780e+00 1.867117e+03 
8.950000e+02 1.197962e+02 1.000000e+00 2.024982e+03 1.005048e+00 1.868125e+03 
8.960000e+02 1.197954e+02 1.000000e+00 2.025983e+03 9.993339e-01 1.869128e+03 
8.970000e+02 1.198001e+02 1.000000e+00 2.026983e+03 9.937870e-01 1.870124e+03 
8.980000e+02 1.198103e+02 1.000000e+00 2.027984e+03 9.885469e-01 1.871115e+03 
8.990000e+02 1.198253e+02 1.000000e+00 2.028984e+03 9.837425e-01 1.872101e+03 
9.000000e+02 1.198448e+02 1.000000e+00 2.029984e+03 9.794884e-01 1.873083e+03 
9.010000e+02 1.198680e+02 1.000000e+00 2.030984e+03 9.758825e-01 1.874061e+03 
9.020000e+02 1.198943e+02 1.000000e+00 2.031984e+03 9.730042e-01 1.875035e+03 
9.030000e+02 1.199229e+02 1.000000e+00 2.032984e+03 9.709111e-01 1.876007e+03 
9.040000e+02 1.199530e+02 1.000000e+00 2.033984e+03 9.696393e-01 1.876977e+03 
9.050000e+02 1.199837e+02 1.000000e+00 2.034984e+03 9.692028e-01 1.877946e+03 
9.060000e+02 1.200142e+02 1.000000e+00 2.035984e+03 9.695934e-01 1.878915e+03 
9.070000e+02 1.200438e+02 1.000000e+00 2.036984e+03 9.707808e-01 1.879885e+03 
9.080000e+02 1.200716e+02 1.000000e+00 2.037984e+03 9.727143e-01 1.880857e+03 
9.090000e+02 1.200969e+02 1.000000e+00 2.038984e+03 9.753242e-01 1.881831e+03 
9.100000e+02 1.201192e+02 1.000000e+00 2.039984e+03 9.785245e-01 1.882808e+03 
9.110000e+02 1.201380e+02 1.000000e+00 2.040984e+03 9.822154e-01 1.883788e+03 
9.120000e+02 1.201527e+02 1.000000e+00 2.041984e+03 9.862866e-01 1.884773e+03 
9.130000e+02 1.201632e+02 1.000000e+00 2.042983e+03 9.906203e-01 1.885762e+03 
9.140000e+02 1.201692e+02 1.000000e+00 2.043983e+03 9.950944e-01 1.886755e+03 
9.150000e+02 1.201707e+02 1.000000e+00 2.044983e+03 9.995861e-01 1.887752e+03 
9.160000e+02 1.201678e+02 1.000000e+00 2.045983e+03 1.003976e+00 1.888754e+03 
9.170000e+02 1.201606e+02 1.000000e+00 2.046983e+03 1.008150e+00 1.889760e+03 
9.180000e+02 1.201495e+02 1.000000e+00 2.047983e+03 1.012004e+00 1.890770e+03 
9.190000e+02 1.201349e+02 1.000000e+00 2.048982e+03 1.015442e+00 1.891784e+03 
9.200000e+02 1.201172e+02 1.000000e+00 2.049982e+03 1.018385e+00 1.892801e+03 
9.210000e+02 1.200969e+02 1.000000e+00 2.050982e+03 1.020768e+00 1.893821e+03 
9.220000e+02 1.200747e+02 1.000000e+00 2.051982e+03 1.022542e+00 1.894842e+03 
9.230000e+02 1.200513e+02 1.000000e+00 2.052982e+03 1.023676e+00 1.895865e+03 
9.240000e+02 1.200271e+02 1.000000e+00 2.053982e+03 1.024156e+00 1.896889e+03 
9.250000e+02 1.200030e+02 1.000000e+00 2.054982e+03 1.023987e+00 1.897913e+03 
9.260000e+02 1.199796e+02 1.000000e+00 2.055982e+03 1.023191e+00 1.898937e+03 
9.270000e+02 1.199573e+02 1.000000e+00 2.056982e+03 1.021805e+00 1.899960e+03 
9.280000e+02 1.199369e+02 1.000000e+00 2.057982e+03 1.019882e+00 1.900981e+03 
9.290000e+02 1.199187e+02 1.000000e+00 2.058982e+03 1.017486e+00 1.901999e+03 
9.300000e+02 1.199033e+02 1.000000e+00 2.059983e+03 1.014693e+00 1.903015e+03 
9.310000e+02 1.198909e+02 1.000000e+00 2.060983e+03 1.011587e+00 1.904029e+03 
9.320000e+02 1.198817e+02 1.000000e+00 2.061983e+03 1.008257e+00 1.905038e+03 
9.330000e+02 1.198760e+02 1.000000e+00 2.062983e+03 1.004798e+00 1.906045e+03 
9.340000e+02 1.198738e+02 1.000000e+00 2.063983e+03 1.001302e+00 1.907048e+03 
9.350000e+02 1.198751e+02 1.000000e+00 2.064984e+03 9.978633e-01 1.908048e+03 
9.360000e+02 1.198797e+02 1.000000e+00 2.065984e+03 9.945693e-01 1.909044e+03 
9.370000e+02 1.198874e+02 1.000000e+00 2.066984e+03 9.915033e-01 1.910037e+03 
9.380000e+02 1.198980e+02 1.000000e+00 2.067984e+03 9.887397e-01 1.911027e+03 
9.390000e+02 1.199111e+02 1.000000e+00 2.068984e+03 9.863437e-01 1.912015e+03 
9.400000e+02 1.199262e+02 1.000000e+00 2.069984e+03 9.843692e-01 1.913000e+03 
9.410000e+02 1.199430e+02 1.000000e+00 2.070984e+03 9.828574e-01 1.913983e+03 
9.420000e+02 1.199609e+02 1.000000e+00 2.071984e+03 9.818365e-01 1.914965e+03 
9.430000e+02 1.199795e+02 1.000000e+00 2.072984e+03 9.813214e-01 1.915947e+03 
9.440000e+02 1.199982e+02 1.000000e+00 2.073984e+03 9.813133e-01 1.916928e+03 
9.450000e+02 1.200166e+02 1.000000e+00 2.074984e+03 9.817998e-01 1.917909e+03 
9.460000e+02 1.200341e+02 1.000000e+00 2.075984e+03 9.827560e-01 1.918892e+03 
9.470000e+02 1.200503e+02 1.000000e+00 2.076984e+03 9.841449e-01 1.919875e+03 
9.480000e+02 1.200649e+02 1.000000e+00 2.077984e+03 9.859189e-01 1.920860e+03 
9.490000e+02 1.200774e+02 1.000000e+00 2.078984e+03 9.880216e-01 1.921847e+03 
9.500000e+02 1.200876e+02 1.000000e+00 2.079984e+03 9.903889e-01 1.922837e+03 
9.510000e+02 1.200953e+02 1.000000e+00 2.080984e+03 9.929514e-01 1.923828e+03 
9.520000e+02 1.201003e+02 1.000000e+00 2.081984e+03 9.956362e-01 1.924823e+03 
9.530000e+02 1.201026e+02 1.000000e+00 2.082984e+03 9.983691e-01 1.925820e+03 
9.540000e+02 1.201022e+02 1.000000e+00 2.083984e+03 1.001076e+00 1.926820e+03 
9.550000e+02 1.200992e+02 1.000000e+00 2.084983e+03 1.003686e+00 1.927822e+03 
9.560000e+02 1.200936e+02 1.000000e+00 2.085983e+03 1.006133e+00 1.928827e+03 
9.570000e+02 1.200858e+02 1.000000e+00 2.086983e+03 1.008355e+00 1.929834e+03 
9.580000e+02 1.200760e+02 1.000000e+00 2.087983e+03 1.010300e+00 1.930844e+03 
9.590000e+02 1.200644e+02 1.000000e+00 2.088983e+03 1.011924e+00 1.931855e+03 
9.600000e+02 1.200515e+02 1.000000e+00 2.089983e+03 1.013191e+00 1.932867e+03 
9.610000e+02 1.200376e+02 1.000000e+00 2.090983e+03 1.014078e+00 1.933881e+03 
9.620000e+02 1.200231e+02 1.000000e+00 2.091983e+03 1.014571e+00 1.934895e+03 
9.630000e+02 1.200084e+02 1.000000e+00 2.092983e+03 1.014667e+00 1.935910e+03 
9.640000e+02 1.199939e+02 1.000000e+00 2.093983e+03 1.014374e+00 1.936925e+03 
9.650000e+02 1.199800e+02 1.000000e+00 2.094983e+03 1.013709e+00 1.937939e+03 
9.660000e+02 1.199670e+02 1.000000e+00 2.095983e+03 1.012701e+00 1.938952e+03 
9.670000e+02 1.199553e+02 1.000000e+00 2.096983e+03 1.011385e+00 1.939964e+03 
9.680000e+02 1.199450e+02 1.000000e+00 2.097983e+03 1.009802e+00 1.940975e+03 
9.690000e+02 1.199365e+02 1.000000e+00 2.098983e+03 1.008003e+00 1.941984e+03 
9.700000e+02 1.199300e+02 1.000000e+00 2.099983e+03 1.006040e+00 1.942991e+03 
9.710000e+02 1.199255e+02 1.000000e+00 2.100983e+03 1.003968e+00 1.943996e+03 
9.720000e+02 1.199231e+02 1.000000e+00 2.101984e+03 1.001846e+00 1.944999e+03 
9.730000e+02 1.199228e+02 1.000000e+00 2.102984e+03 9.997295e-01 1.945999e+03 
9.740000e+02 1.199246e+02 1.000000e+00 2.103984e+03 9.976749e-01 1.946998e+03 
9.750000e+02 1.199284e+02 1.000000e+00 2.104984e+03 9.957344e-01 1.947995e+03 
9.760000e+02 1.199340e+02 1.000000e+00 2.105984e+03 9.939562e-01 1.948990e+03 
9.770000e+02 1.199412e+02 1.000000e+00 2.106984e+03 9.923831e-01 1.949983e+03 
9.780000e+02 1.199499e+02 1.000000e+00 2.107984e+03 9.910511e-01 1.950974e+03 
9.790000e+02 1.199596e+02 1.000000e+00 2.108984e+03 9.899893e-01 1.951965e+03 
9.800000e+02 1.199702e+02 1.000000e+00 2.109984e+03 9.892188e-01 1.952954e+03 
9.810000e+02 1.199814e+02 1.000000e+00 2.110984e+03 9.887526e-01 1.953943e+03 
9.820000e+02 1.199928e+02 1.000000e+00 2.111984e+03 9.885955e-01 1.954932e+03 
9.830000e+02 1.200041e+02 1.000000e+00 2.112984e+03 9.887437e-01 1.955920e+03 
9.840000e+02 1.200150e+02 1.000000e+00 2.113984e+03 9.891859e-01 1.956909e+03 
9.850000e+02 1.200253e+02 1.000000e+00 2.114984e+03 9.899029e-01 1.957899e+03 
9.860000e+02 1.200347e+02 1.000000e+00 2.115984e+03 9.908689e-01 1.958889e+03 
9.870000e+02 1.200430e+02 1.000000e+00 2.116984e+03 9.920521e-01 1.959881e+03 
9.880000e+02 1.200499e+02 1.000000e+00 2.117984e+03 9.934158e-01 1.960873e+03 
9.890000e+02 1.200554e+02 1.000000e+00 2.118984e+03 9.949192e-01 1.961868e+03 
9.900000e+02 1.200593e+02 1.000000e+00 2.119984e+03 9.965192e-01 1.962863e+03 
9.910000e+02 1.200615e+02 1.000000e+00 2.120984e+03 9.981707e-01 1.963861e+03 
9.920000e+02 1.200621e+02 1.000000e+00 2.121984e+03 9.998290e-01 1.964860e+03 
9.930000e+02 1.200610e+02 1.000000e+00 2.122984e+03 1.001450e+00 1.965861e+03 
9.940000e+02 1.200584e+02 1.000000e+00 2.123984e+03 1.002991e+00 1.966863e+03 
9.950000e+02 1.200544e+02 1.000000e+00 2.124984e+03 1.004414e+00 1.967867e+03 
9.960000e+02 1.200490e+02 1.000000e+00 2.125984e+03 1.005684e+00 1.968872e+03 
9.970000e+02 1.200424e+02 1.000000e+00 2.126983e+03 1.006772e+00 1.969878e+03 
9.980000e+02 1.200350e+02 1.000000e+00 2.127983e+03 1.007653e+00 1.970885e+03 
9.990000e+02 1.200268e+02 1.000000e+00 2.128983e+03 1.008310e+00 1.971893e+03 
1.000000e+03 1.200182e+02 1.000000e+00 2.129983e+03 1.008731e+00 1.972902e+03 
