DomainArea : 900
nCellDomain : 900
runTime : 2.56541 : 1
simTime : 2.56215 : 0.99873
initTime : 0.00325736 : 0.00126972
outputTime : 1.94884 : 0.759659
sweFluxTime : 0.143344 : 0.0558756
rainInfTime : 0.00020081 : 7.8276e-05
sweNotFluxTime : 0.166085 : 0.0647403
exchangeTime : 0.210637 : 0.0821068
integrateTime : 0.0252463 : 0.00984104
dtComputeTime : 2.865e-06 : 1.11678e-06
DateTime : Mon Mar 13 17:17:34 2023

Machine : ibg3549
CPU: Intel(R) Core(TM) i7-10510U CPU @ 1.80GHz
nTasks : 1

-------------------------
MODEL COMPONENT SETUP
SERGHEI_TOOLS 1
SERGHEI_SUBSURFACE_MODEL 0
SERGHEI_PARTICLE_TRACKING 0
SERGHEI_VEGETATION_MODEL 0
SERGHEI_TOOLS 1
SERGHEI_FRICTION_MODEL 1

-------------------------
DEBUG FLAGS
SERGHEI_DEBUG_PARALLEL_DECOMPOSITION 0
SERGHEI_DEBUG_WORKFLOW 0
SERGHEI_DEBUG_KOKKOS_SETUP 0
SERGHEI_DEBUG_BOUNDARY 0
SERGHEI_DEBUG_DT 0
SERGHEI_DEBUG_TOOLS 0
SERGHEI_DEBUG_MASS_CONS 0
