<?xml version="1.0" encoding="UTF-8" standalone="no"?>
<!-- Created with Inkscape (http://www.inkscape.org/) -->

<svg
   width="47.889584mm"
   height="47.889584mm"
   viewBox="0 0 47.889584 47.889584"
   version="1.1"
   id="svg8"
   inkscape:version="1.1.2 (0a00cf5339, 2022-02-04)"
   sodipodi:docname="serghei_logo.svg"
   xmlns:inkscape="http://www.inkscape.org/namespaces/inkscape"
   xmlns:sodipodi="http://sodipodi.sourceforge.net/DTD/sodipodi-0.dtd"
   xmlns="http://www.w3.org/2000/svg"
   xmlns:svg="http://www.w3.org/2000/svg"
   xmlns:rdf="http://www.w3.org/1999/02/22-rdf-syntax-ns#"
   xmlns:cc="http://creativecommons.org/ns#"
   xmlns:dc="http://purl.org/dc/elements/1.1/">
  <defs
     id="defs2" />
  <sodipodi:namedview
     id="base"
     pagecolor="#ffffff"
     bordercolor="#666666"
     borderopacity="1.0"
     inkscape:pageopacity="0.0"
     inkscape:pageshadow="2"
     inkscape:zoom="0.9899495"
     inkscape:cx="213.64726"
     inkscape:cy="113.13708"
     inkscape:document-units="mm"
     inkscape:current-layer="layer1"
     showgrid="false"
     inkscape:window-width="1920"
     inkscape:window-height="1011"
     inkscape:window-x="0"
     inkscape:window-y="32"
     inkscape:window-maximized="1"
     fit-margin-top="0"
     fit-margin-left="0"
     fit-margin-right="0"
     fit-margin-bottom="0"
     inkscape:pagecheckerboard="0">
    <inkscape:grid
       type="xygrid"
       id="grid3713"
       originx="82.153128"
       originy="-164.04165" />
  </sodipodi:namedview>
  <metadata
     id="metadata5">
    <rdf:RDF>
      <cc:Work
         rdf:about="">
        <dc:format>image/svg+xml</dc:format>
        <dc:type
           rdf:resource="http://purl.org/dc/dcmitype/StillImage" />
      </cc:Work>
    </rdf:RDF>
  </metadata>
  <g
     inkscape:label="Layer 1"
     inkscape:groupmode="layer"
     id="layer1"
     transform="translate(82.153128,-85.068751)">
    <rect
       style="fill:#ffffff;stroke:none;stroke-width:2;stroke-linecap:round;stroke-dasharray:7.99999, 7.99999"
       id="rect892"
       width="47.625"
       height="47.757286"
       x="-82.020836"
       y="85.201042" />
    <text
       xml:space="preserve"
       style="font-style:normal;font-weight:normal;font-size:59.4965px;line-height:1.25;font-family:sans-serif;letter-spacing:0px;word-spacing:0px;fill:#a7bef8;fill-opacity:0.396226;stroke:none;stroke-width:1.48741"
       x="-65.611412"
       y="133.5887"
       id="text3789-1-2-4-1"
       transform="scale(1.0593904,0.94393909)"
       inkscape:export-xdpi="250"
       inkscape:export-ydpi="250"><tspan
         sodipodi:role="line"
         id="tspan3787-2-6-1-3"
         x="-65.611412"
         y="133.5887"
         style="font-style:normal;font-variant:normal;font-weight:bold;font-stretch:normal;font-family:'Avenir Next LT Pro';-inkscape-font-specification:'Avenir Next LT Pro Bold';fill:#a7bef8;fill-opacity:0.396226;stroke:none;stroke-width:1.48741">S</tspan></text>
    <rect
       id="rect3755-9-3-3-7"
       width="47.625"
       height="5.2916665"
       x="85.333336"
       y="76.861458"
       style="fill:#a67165;fill-opacity:1;stroke-width:0.26458332"
       transform="rotate(90)"
       inkscape:export-xdpi="250"
       inkscape:export-ydpi="250" />
    <rect
       id="rect3755-7-6-6-6-0"
       width="47.625"
       height="5.2916665"
       x="85.333336"
       y="71.569809"
       style="fill:#89a65d;fill-opacity:1;stroke-width:0.26458332"
       transform="rotate(90)"
       inkscape:export-xdpi="250"
       inkscape:export-ydpi="250" />
    <rect
       id="rect3755-7-5-3-3-7-9"
       width="47.625"
       height="5.2916665"
       x="85.333336"
       y="66.278137"
       style="fill:#a7bef8;fill-opacity:1;stroke-width:0.26458332"
       transform="rotate(90)"
       inkscape:export-xdpi="250"
       inkscape:export-ydpi="250" />
    <rect
       id="rect3755-3-5-3"
       width="47.625"
       height="5.2916665"
       x="-82.020836"
       y="127.66666"
       style="fill:#a67165;fill-opacity:1;stroke-width:0.26458332"
       inkscape:export-xdpi="250"
       inkscape:export-ydpi="250" />
    <rect
       id="rect3755-7-4-3-6"
       width="47.625"
       height="5.2916665"
       x="-82.020836"
       y="122.37499"
       style="fill:#89a65d;fill-opacity:1;stroke-width:0.26458332"
       inkscape:export-xdpi="250"
       inkscape:export-ydpi="250" />
    <rect
       id="rect3755-7-5-4-5-0"
       width="47.625"
       height="5.2916665"
       x="-82.020836"
       y="117.08334"
       style="fill:#a7bef8;fill-opacity:1;stroke-width:0.26458332"
       inkscape:export-xdpi="250"
       inkscape:export-ydpi="250" />
    <rect
       style="fill:none;stroke:#000000;stroke-width:0.26458332"
       id="rect3800-3-6-6"
       width="47.625"
       height="47.625"
       x="-82.020836"
       y="85.201042"
       inkscape:export-xdpi="250"
       inkscape:export-ydpi="250" />
    <text
       xml:space="preserve"
       style="font-style:normal;font-weight:normal;font-size:7.59067px;line-height:1.25;font-family:sans-serif;letter-spacing:0px;word-spacing:0px;fill:#ffffff;fill-opacity:1;stroke:none;stroke-width:0.189767"
       x="-67.12986"
       y="115.7819"
       id="text3789-1-2"
       transform="scale(0.98943794,1.0106748)"
       inkscape:export-xdpi="250"
       inkscape:export-ydpi="250"><tspan
         sodipodi:role="line"
         id="tspan3787-2-6"
         x="-67.12986"
         y="115.7819"
         style="font-style:normal;font-variant:normal;font-weight:bold;font-stretch:normal;font-family:'Avenir Next LT Pro';-inkscape-font-specification:'Avenir Next LT Pro Bold';fill:#000000;fill-opacity:1;stroke:none;stroke-width:0.189767">SERGHEI</tspan></text>
  </g>
</svg>
